curstrun	.equ	$1d
curstrun_	.equ	$1e
dtnum	.equ	$80
dtval5	.equ	$81
Z84	.equ	$84
Z85	.equ	$85
Z86	.equ	$86
Z87	.equ	$87
Z88	.equ	$88
Z8b	.equ	$8b
Z8c	.equ	$8c
Z8d	.equ	$8d
btn_unk0	.equ	$8f
Z90	.equ	$90
Z91	.equ	$91
Z92	.equ	$92
flag93	.equ	$93
flag95	.equ	$95
curdt	.equ	$96
curdt_	.equ	$97
Z98	.equ	$98
Z99	.equ	$99
Z9a	.equ	$9a
Z9b	.equ	$9b
btn_row	.equ	$9d
Z9e	.equ	$9e
Za0	.equ	$a0
Za1	.equ	$a1
Za2	.equ	$a2
Za3	.equ	$a3
Za4	.equ	$a4
flagA5	.equ	$a5
Za6	.equ	$a6
Zac	.equ	$ac
dtval6	.equ	$ad
Zae	.equ	$ae
nmi_unkr	.equ	$af
nmi_unkw	.equ	$b0
Zb5	.equ	$b5
Zb6	.equ	$b6
Zb7	.equ	$b7
Zb9	.equ	$b9
Zba	.equ	$ba
Zbb	.equ	$bb
Zc2	.equ	$c2
Zc3	.equ	$c3
Zcc	.equ	$cc
Zcd	.equ	$cd
Zcf	.equ	$cf
Zd0	.equ	$d0
wordD6	.equ	$d6
wordD6_	.equ	$d7
wordD8	.equ	$d8
wordD8_	.equ	$d9
Zda	.equ	$da
delaycnt	.equ	$db
stnum	.equ	$dc
D0100	.equ	$0100
dataB	.equ	$1c00
dataA	.equ	$1c01
dirB	.equ	$1c02
dirA	.equ	$1c03
timer1lo	.equ	$1c04
timer1hi	.equ	$1c05
auxcon	.equ	$1c0b
int_pctrl	.equ	$1c0c
int_flag	.equ	$1c0d
int_ena	.equ	$1c0e

	.org	$f800

f800  4c 8a f8   reset:	JMP	init
f803             	.byte	$43,$4f,$50,$59,$52,$49,$47,$48	; "COPYRIGH"
f80b             	.byte	$54,$20,$31,$39,$38,$34,$20,$50	; "T 1984 P"
f813             	.byte	$52,$4f,$54,$4f,$20,$50,$43,$20	; "ROTO PC "
f81b             	.byte	$49,$4e,$43                    	; "INC"

f81e  48         nmi:	PHA
f81f  a9 40      	LDA	#$40	; 64 @
f821  2c 0d 1c   	BIT	int_flag
f824  f0 03      	BEQ	nottime
f826  20 da ff   	JSR	timeout
f829  ad 01 1c   nottime:	LDA	dataA
f82c  a9 00      	LDA	#$00	; 0 .
f82e  85 b0      	STA	nmi_unkw
f830  a5 af      	LDA	nmi_unkr
f832  f0 04      	BEQ	Lf838
f834  a9 01      	LDA	#$01	; 1 .
f836  85 b0      	STA	nmi_unkw
f838  68         Lf838:	PLA
f839  40         	RTI
f83a             delaycnts:	.byte	$03,$06,$09,$0c,$0f,$12,$15,$18	; "........"
f842             	.byte	$1c,$1f                        	; ".."
f844             dtnuminit:	.byte	$00                            	; "."
f845             stnumlist:	.byte	$02,$00                        	; ".."
f847             Df847:	.byte	$33,$34,$35,$51,$52            	; "345QR"
f84c             Df84c:	.byte	$03,$06,$09,$0c,$0f,$12,$15,$18	; "........"
f854             	.byte	$1b,$1e,$ff                    	; "..."
f857             Df857:	.byte	$07,$08,$03,$09,$04,$04,$04,$04	; "........"
f85f             	.byte	$05,$06,$01,$00,$04,$04,$02,$02	; "........"
f867             Df867:	.byte	$fd                            	; "."
f868             Df868:	.byte	$fb                            	; "."
f869             Df869:	.byte	$fe                            	; "."
f86a             Df86a:	.byte	$f7                            	; "."
f86b             Df86b:	.byte	$7f                            	; "."
f86c             Df86c:	.byte	$df                            	; "."
f86d             Df86d:	.byte	$ef                            	; "."
f86e             Df86e:	.byte	$bf                            	; "."
f86f             dtabA:	.byte	$00,$01,$10,$21,$22,$27        	; "...!"'"
f875             dtabA:	.byte	$00,$08,$20,$38,$38,$4f        	; ".. 88O"
f87b             dtabA:	.byte	$00,$0b,$24,$3d,$3d,$4d        	; "..$==M"
f881             dtabA:	.byte	$00,$01,$26,$4b,$4c,$4d        	; "..&KLM"
f887             Df887:	.byte	$0a                            	; "."
f888             Df888:	.byte	$97                            	; "."
f889             Df889:	.byte	$00                            	; "."
f88a  d8         init:	CLD
f88b  a9 82      	LDA	#$82	; 130 .
f88d  8d 0e 1c   	STA	int_ena
f890  a9 0f      	LDA	#$0f	; 15 .
f892  8d 03 1c   	STA	dirA
f895  a9 cf      	LDA	#$cf	; 207 .
f897  8d 02 1c   	STA	dirB
f89a  a9 00      	LDA	#$00	; 0 .
f89c  85 8c      	STA	Z8c
f89e  85 93      	STA	flag93
f8a0  85 af      	STA	nmi_unkr
f8a2  85 8d      	STA	Z8d
f8a4  85 91      	STA	Z91
f8a6  a9 01      	LDA	#$01	; 1 .
f8a8  8d 0c 1c   	STA	int_pctrl
f8ab  85 90      	STA	Z90
f8ad  85 a0      	STA	Za0
f8af  ad 44 f8   	LDA	dtnuminit
f8b2  85 80      	STA	dtnum
f8b4  20 8d fd   	JSR	setdt
f8b7  ad 45 f8   	LDA	stnumlist
f8ba  85 dc      	STA	stnum
f8bc  aa         	TAX
f8bd  bd 3a f8   	LDA	delaycnts,X
f8c0  85 db      	STA	delaycnt
f8c2  20 ab ff   	JSR	Sffab
f8c5  ad 15 f9   strunlist:	LDA	strun0
f8c8  ad 38 f9   	LDA	strun1
f8cb  ad 5e f9   	LDA	strun2
f8ce  ad de f9   	LDA	strun3
f8d1  ad 68 fa   	LDA	strun4
f8d4  ad bb fa   	LDA	strun5
f8d7  ad ef fa   	LDA	strun6
f8da  ad 38 fb   	LDA	strun7
f8dd  ad 8a fb   	LDA	strun8
f8e0  ad e8 fc   	LDA	strun9
f8e3  ad 6f f8   dtlist:	LDA	dtabA
f8e6  ad 75 f8   	LDA	dtabA
f8e9  ad 7b f8   	LDA	dtabA
f8ec  ad 81 f8   	LDA	dtabA
f8ef  a5 90      Lf8ef:	LDA	Z90
f8f1  d0 06      	BNE	Lf8f9
f8f3  20 0d fe   	JSR	Sfe0d
f8f6  4c ef f8   	JMP	Lf8ef
f8f9  a5 87      Lf8f9:	LDA	Z87
f8fb  20 9c fe   	JSR	Sfe9c
f8fe  20 ac fd   Lf8fe:	JSR	Sfdac
f901  a5 93      	LDA	flag93
f903  f0 f9      	BEQ	Lf8fe
f905  a9 00      Lf905:	LDA	#$00	; 0 .
f907  85 93      	STA	flag93
f909  85 95      	STA	flag95
f90b  6c 1d 00   	JMP	(curstrun)
f90e  a5 93      Lf90e:	LDA	flag93
f910  d0 f3      	BNE	Lf905
f912  4c ef f8   	JMP	Lf8ef

f915  ea         strun0:	NOP
f916  a5 80      	LDA	dtnum
f918  85 98      	STA	Z98
f91a  a9 04      	LDA	#$04	; 4 .
f91c  85 99      	STA	Z99
f91e  ad 47 f8   	LDA	Df847
f921  ad 1f f9   	LDA	Df91f
f924  85 9a      	STA	Z9a
f926  ad 20 f9   	LDA	Df920
f929  85 9b      	STA	Z9b
f92b  20 3d fd   	JSR	Sfd3d
f92e  a5 98      	LDA	Z98
f930  85 80      	STA	dtnum
f932  20 8d fd   	JSR	setdt
f935  4c 0e f9   	JMP	Lf90e

f938  ea         strun1:	NOP
f939  a5 dc      	LDA	stnum
f93b  85 98      	STA	Z98
f93d  a9 0a      	LDA	#$0a	; 10 .
f93f  85 99      	STA	Z99
f941  ad 4c f8   	LDA	Df84c
f944  ad 42 f9   	LDA	Df942
f947  85 9a      	STA	Z9a
f949  ad 43 f9   	LDA	Df943
f94c  85 9b      	STA	Z9b
f94e  20 3d fd   	JSR	Sfd3d
f951  a5 98      	LDA	Z98
f953  85 dc      	STA	stnum
f955  aa         	TAX
f956  bd 3a f8   	LDA	delaycnts,X
f959  85 db      	STA	delaycnt
f95b  4c 0e f9   	JMP	Lf90e

f95e  ea         strun2:	NOP
f95f  a9 00      	LDA	#$00	; 0 .
f961  85 8c      	STA	Z8c
f963  a5 92      	LDA	Z92
f965  c9 0f      	CMP	#$0f	; 15 .
f967  d0 0d      	BNE	Lf976
f969  ad 67 f8   	LDA	Df867
f96c  20 0c ff   	JSR	Sff0c
f96f  a9 00      	LDA	#$00	; 0 .
f971  85 84      	STA	Z84
f973  4c 80 f9   	JMP	Lf980
f976  ad 67 f8   Lf976:	LDA	Df867
f979  20 f4 fe   	JSR	Sfef4
f97c  a9 01      	LDA	#$01	; 1 .
f97e  85 84      	STA	Z84
f980  a5 84      Lf980:	LDA	Z84
f982  d0 09      	BNE	Lf98d
f984  a5 87      	LDA	Z87
f986  f0 13      	BEQ	Lf99b
f988  c6 87      	DEC	Z87
f98a  4c 95 f9   	JMP	Lf995
f98d  a5 87      Lf98d:	LDA	Z87
f98f  c5 81      	CMP	dtval5
f991  f0 08      	BEQ	Lf99b
f993  e6 87      	INC	Z87
f995  ad 68 f8   Lf995:	LDA	Df868
f998  20 f4 fe   	JSR	Sfef4
f99b  a5 87      Lf99b:	LDA	Z87
f99d  20 9c fe   	JSR	Sfe9c
f9a0  a9 00      	LDA	#$00	; 0 .
f9a2  85 86      	STA	Z86
f9a4  20 4d fe   	JSR	settimer
f9a7  a5 8c      	LDA	Z8c
f9a9  d0 05      	BNE	Lf9b0
f9ab  a9 32      	LDA	#$32	; 50 2
f9ad  4c b2 f9   	JMP	Lf9b2
f9b0  a9 05      Lf9b0:	LDA	#$05	; 5 .
f9b2  85 85      Lf9b2:	STA	Z85
f9b4  a9 01      	LDA	#$01	; 1 .
f9b6  85 8c      	STA	Z8c
f9b8  20 5e fe   Lf9b8:	JSR	Sfe5e
f9bb  a5 a5      	LDA	flagA5
f9bd  d0 0f      	BNE	Lf9ce
f9bf  20 0d fe   Lf9bf:	JSR	Sfe0d
f9c2  a5 90      	LDA	Z90
f9c4  f0 f2      	BEQ	Lf9b8
f9c6  a2 14      	LDX	#$14	; 20 .
f9c8  20 71 fe   	JSR	delay
f9cb  4c 0e f9   	JMP	Lf90e
f9ce  e6 86      Lf9ce:	INC	Z86
f9d0  a5 86      	LDA	Z86
f9d2  c5 85      	CMP	Z85
f9d4  b0 aa      	BCS	Lf980
f9d6  a9 00      	LDA	#$00	; 0 .
f9d8  20 4d fe   	JSR	settimer
f9db  4c bf f9   	JMP	Lf9bf

f9de  ea         strun3:	NOP
f9df  a9 05      	LDA	#$05	; 5 .
f9e1  85 a1      	STA	Za1
f9e3  a5 a0      	LDA	Za0
f9e5  f0 0f      	BEQ	Lf9f6
f9e7  a5 87      	LDA	Z87
f9e9  c5 81      	CMP	dtval5
f9eb  f0 5b      	BEQ	Lfa48
f9ed  20 03 fa   	JSR	Sfa03
f9f0  20 29 fa   	JSR	Sfa29
f9f3  4c 48 fa   	JMP	Lfa48
f9f6  a5 87      Lf9f6:	LDA	Z87
f9f8  f0 4e      	BEQ	Lfa48
f9fa  20 29 fa   	JSR	Sfa29
f9fd  20 03 fa   	JSR	Sfa03
fa00  4c 48 fa   	JMP	Lfa48

fa03  a9 01      Sfa03:	LDA	#$01	; 1 .
fa05  85 84      	STA	Z84
fa07  ad 67 f8   	LDA	Df867
fa0a  20 f4 fe   	JSR	Sfef4
fa0d  18         	CLC
fa0e  a5 87      	LDA	Z87
fa10  65 a1      	ADC	Za1
fa12  85 88      	STA	Z88
fa14  c5 81      	CMP	dtval5
fa16  f0 0d      	BEQ	Lfa25
fa18  90 0b      	BCC	Lfa25
fa1a  a5 81      	LDA	dtval5
fa1c  85 88      	STA	Z88
fa1e  38         	SEC
fa1f  a5 81      	LDA	dtval5
fa21  e5 87      	SBC	Z87
fa23  85 a1      	STA	Za1
fa25  20 14 fd   Lfa25:	JSR	Sfd14
fa28  60         	RTS

fa29  a9 00      Sfa29:	LDA	#$00	; 0 .
fa2b  85 84      	STA	Z84
fa2d  ad 67 f8   	LDA	Df867
fa30  20 0c ff   	JSR	Sff0c
fa33  38         	SEC
fa34  a5 87      	LDA	Z87
fa36  e5 a1      	SBC	Za1
fa38  85 88      	STA	Z88
fa3a  10 08      	BPL	Lfa44
fa3c  a9 00      	LDA	#$00	; 0 .
fa3e  85 88      	STA	Z88
fa40  a5 87      	LDA	Z87
fa42  85 a1      	STA	Za1
fa44  20 14 fd   Lfa44:	JSR	Sfd14
fa47  60         	RTS
fa48  a5 a0      Lfa48:	LDA	Za0
fa4a  09 fe      	ORA	#$fe	; 254 .
fa4c  49 ff      	EOR	#$ff	; 255 .
fa4e  85 a0      	STA	Za0
fa50  a2 f0      	LDX	#$f0	; 240 .
fa52  20 71 fe   	JSR	delay
fa55  20 ac fd   	JSR	Sfdac
fa58  a5 93      	LDA	flag93
fa5a  f0 09      	BEQ	Lfa65
fa5c  a5 92      	LDA	Z92
fa5e  c9 03      	CMP	#$03	; 3 .
fa60  d0 03      	BNE	Lfa65
fa62  4c de f9   	JMP	strun3
fa65  4c 0e f9   Lfa65:	JMP	Lf90e

fa68  ea         strun4:	NOP
fa69  a5 da      	LDA	Zda
fa6b  f0 07      	BEQ	Lfa74
fa6d  a9 00      	LDA	#$00	; 0 .
fa6f  85 93      	STA	flag93
fa71  4c 0e f9   	JMP	Lf90e
fa74  a5 92      Lfa74:	LDA	Z92
fa76  c9 05      	CMP	#$05	; 5 .
fa78  d0 06      	BNE	Lfa80
fa7a  20 ab ff   	JSR	Sffab
fa7d  4c 0e f9   	JMP	Lf90e
fa80  a5 92      Lfa80:	LDA	Z92
fa82  c9 09      	CMP	#$09	; 9 .
fa84  b0 08      	BCS	Lfa8e
fa86  38         	SEC
fa87  a5 92      	LDA	Z92
fa89  e9 05      	SBC	#$05	; 5 .
fa8b  4c 93 fa   	JMP	Lfa93
fa8e  38         Lfa8e:	SEC
fa8f  a5 92      	LDA	Z92
fa91  e9 09      	SBC	#$09	; 9 .
fa93  a8         Lfa93:	TAY
fa94  b1 96      	LDA	(curdt),Y
fa96  85 88      	STA	Z88
fa98  a5 87      	LDA	Z87
fa9a  c5 88      	CMP	Z88
fa9c  b0 0d      	BCS	Lfaab
fa9e  a9 01      	LDA	#$01	; 1 .
faa0  85 84      	STA	Z84
faa2  ad 67 f8   	LDA	Df867
faa5  20 f4 fe   	JSR	Sfef4
faa8  4c b5 fa   	JMP	Lfab5
faab  a9 00      Lfaab:	LDA	#$00	; 0 .
faad  85 84      	STA	Z84
faaf  ad 67 f8   	LDA	Df867
fab2  20 0c ff   	JSR	Sff0c
fab5  20 14 fd   Lfab5:	JSR	Sfd14
fab8  4c 0e f9   	JMP	Lf90e

fabb  ea         strun5:	NOP
fabc  ad 6d f8   	LDA	Df86d
fabf  49 ff      	EOR	#$ff	; 255 .
fac1  2d 00 1c   	AND	dataB
fac4  f0 0a      	BEQ	Lfad0
fac6  a9 99      Lfac6:	LDA	#$99	; 153 .
fac8  85 a3      	STA	Za3
faca  20 83 ff   	JSR	Sff83
facd  4c 0e f9   	JMP	Lf90e
fad0  a5 87      Lfad0:	LDA	Z87
fad2  20 9c fe   	JSR	Sfe9c
fad5  ad 69 f8   	LDA	Df869
fad8  20 f4 fe   	JSR	Sfef4
fadb  a9 01      	LDA	#$01	; 1 .
fadd  85 8c      	STA	Z8c
fadf  a2 92      Lfadf:	LDX	#$92	; 146 .
fae1  20 71 fe   	JSR	delay
fae4  e6 8c      	INC	Z8c
fae6  a5 8c      	LDA	Z8c
fae8  c9 02      	CMP	#$02	; 2 .
faea  d0 f3      	BNE	Lfadf
faec  4c 26 fb   	JMP	Lfb26

faef  ea         strun6:	NOP
faf0  ad 6d f8   	LDA	Df86d
faf3  49 ff      	EOR	#$ff	; 255 .
faf5  2d 00 1c   	AND	dataB
faf8  d0 cc      	BNE	Lfac6
fafa  a5 87      	LDA	Z87
fafc  20 9c fe   	JSR	Sfe9c
faff  ad 69 f8   	LDA	Df869
fb02  20 f4 fe   	JSR	Sfef4
fb05  a9 c0      	LDA	#$c0	; 192 .
fb07  8d 0b 1c   	STA	auxcon
fb0a  ad 89 f8   	LDA	Df889
fb0d  8d 04 1c   	STA	timer1lo
fb10  a9 00      	LDA	#$00	; 0 .
fb12  8d 05 1c   	STA	timer1hi
fb15  ae 88 f8   	LDX	Df888
fb18  20 71 fe   	JSR	delay
fb1b  a9 00      	LDA	#$00	; 0 .
fb1d  8d 0b 1c   	STA	auxcon
fb20  ad 6b f8   	LDA	Df86b
fb23  20 0c ff   	JSR	Sff0c
fb26  ad 69 f8   Lfb26:	LDA	Df869
fb29  20 0c ff   	JSR	Sff0c
fb2c  a9 00      	LDA	#$00	; 0 .
fb2e  85 af      	STA	nmi_unkr
fb30  85 b0      	STA	nmi_unkw
fb32  8d 0b 1c   	STA	auxcon
fb35  4c 0e f9   	JMP	Lf90e

fb38  ea         strun7:	NOP
fb39  20 df fe   Lfb39:	JSR	Sfedf
fb3c  a5 90      	LDA	Z90
fb3e  f0 f9      	BEQ	Lfb39
fb40  a2 14      	LDX	#$14	; 20 .
fb42  20 71 fe   	JSR	delay
fb45  a5 8d      	LDA	Z8d
fb47  09 fe      	ORA	#$fe	; 254 .
fb49  49 ff      	EOR	#$ff	; 255 .
fb4b  85 8d      	STA	Z8d
fb4d  f0 09      	BEQ	Lfb58
fb4f  ad 6a f8   	LDA	Df86a
fb52  20 f4 fe   	JSR	Sfef4
fb55  4c 5e fb   	JMP	Lfb5e
fb58  ad 6a f8   Lfb58:	LDA	Df86a
fb5b  20 0c ff   	JSR	Sff0c
fb5e  a9 00      Lfb5e:	LDA	#$00	; 0 .
fb60  85 86      	STA	Z86
fb62  a5 8d      	LDA	Z8d
fb64  85 8b      	STA	Z8b
fb66  20 7b fe   	JSR	Sfe7b
fb69  a9 00      	LDA	#$00	; 0 .
fb6b  20 4d fe   	JSR	settimer
fb6e  a9 32      	LDA	#$32	; 50 2
fb70  85 85      	STA	Z85
fb72  20 ac fd   Lfb72:	JSR	Sfdac
fb75  20 67 ff   	JSR	Sff67
fb78  a5 95      	LDA	flag95
fb7a  d0 0b      	BNE	Lfb87
fb7c  a5 93      	LDA	flag93
fb7e  f0 f2      	BEQ	Lfb72
fb80  c9 01      	CMP	#$01	; 1 .
fb82  d0 03      	BNE	Lfb87
fb84  4c 39 fb   	JMP	Lfb39
fb87  4c 0e f9   Lfb87:	JMP	Lf90e

fb8a  a9 01      strun8:	LDA	#$01	; 1 .
fb8c  85 af      	STA	nmi_unkr
fb8e  20 0d fe   Lfb8e:	JSR	Sfe0d
fb91  a5 90      	LDA	Z90
fb93  f0 f9      	BEQ	Lfb8e
fb95  a9 88      	LDA	#$88	; 136 .
fb97  85 a3      	STA	Za3
fb99  a9 64      	LDA	#$64	; 100 d
fb9b  85 85      	STA	Z85
fb9d  a9 00      	LDA	#$00	; 0 .
fb9f  85 86      	STA	Z86
fba1  85 b0      	STA	nmi_unkw
fba3  85 cc      	STA	Zcc
fba5  20 4d fe   	JSR	settimer
fba8  a5 b0      Lfba8:	LDA	nmi_unkw
fbaa  d0 0d      	BNE	Lfbb9
fbac  20 67 ff   	JSR	Sff67
fbaf  a5 95      	LDA	flag95
fbb1  f0 f5      	BEQ	Lfba8
fbb3  20 83 ff   	JSR	Sff83
fbb6  4c 0e f9   	JMP	Lf90e
fbb9  a9 00      Lfbb9:	LDA	#$00	; 0 .
fbbb  85 cf      	STA	Zcf
fbbd  85 d0      	STA	Zd0
fbbf  85 cd      	STA	Zcd
fbc1  85 b0      Lfbc1:	STA	nmi_unkw
fbc3  85 d6      	STA	wordD6
fbc5  85 d7      	STA	wordD6_
fbc7  85 b7      	STA	Zb7
fbc9  85 bb      	STA	Zbb
fbcb  a5 b0      Lfbcb:	LDA	nmi_unkw
fbcd  d0 0e      	BNE	Lfbdd
fbcf  20 ac fd   	JSR	Sfdac
fbd2  a5 93      	LDA	flag93
fbd4  f0 f5      	BEQ	Lfbcb
fbd6  c9 01      	CMP	#$01	; 1 .
fbd8  f0 25      	BEQ	Lfbff
fbda  4c d3 fc   	JMP	Lfcd3
fbdd  a9 c0      Lfbdd:	LDA	#$c0	; 192 .
fbdf  8d 0b 1c   	STA	auxcon
fbe2  a9 62      	LDA	#$62	; 98 b
fbe4  8d 04 1c   	STA	timer1lo
fbe7  a9 00      	LDA	#$00	; 0 .
fbe9  8d 05 1c   	STA	timer1hi
fbec  85 b0      	STA	nmi_unkw
fbee  a5 b0      Lfbee:	LDA	nmi_unkw
fbf0  d0 19      	BNE	Lfc0b
fbf2  20 5e fe   	JSR	Sfe5e
fbf5  a5 a5      	LDA	flagA5
fbf7  f0 f5      	BEQ	Lfbee
fbf9  20 da ff   	JSR	timeout
fbfc  4c ee fb   	JMP	Lfbee
fbff  85 cc      Lfbff:	STA	Zcc
fc01  20 ac fd   Lfc01:	JSR	Sfdac
fc04  a5 90      	LDA	Z90
fc06  f0 f9      	BEQ	Lfc01
fc08  4c b9 fb   	JMP	Lfbb9
fc0b  a9 00      Lfc0b:	LDA	#$00	; 0 .
fc0d  8d 0b 1c   	STA	auxcon
fc10  a5 cc      	LDA	Zcc
fc12  f0 03      	BEQ	Lfc17
fc14  20 4f fc   	JSR	Sfc4f
fc17  a5 d7      Lfc17:	LDA	wordD6_
fc19  c9 07      	CMP	#$07	; 7 .
fc1b  d0 15      	BNE	Lfc32
fc1d  a5 d6      	LDA	wordD6
fc1f  c9 c7      	CMP	#$c7	; 199 .
fc21  90 0f      	BCC	Lfc32
fc23  c9 db      	CMP	#$db	; 219 .
fc25  b0 0b      	BCS	Lfc32
fc27  38         	SEC
fc28  a5 d6      	LDA	wordD6
fc2a  e9 c7      	SBC	#$c7	; 199 .
fc2c  18         	CLC
fc2d  69 5a      	ADC	#$5a	; 90 Z
fc2f  4c 47 fc   	JMP	Lfc47
fc32  a5 d6      Lfc32:	LDA	wordD6
fc34  85 b5      	STA	Zb5
fc36  a5 d7      	LDA	wordD6_
fc38  85 b6      	STA	Zb6
fc3a  a9 00      	LDA	#$00	; 0 .
fc3c  85 ba      	STA	Zba
fc3e  a9 0a      	LDA	#$0a	; 10 .
fc40  85 b9      	STA	Zb9
fc42  20 3f ff   	JSR	Sff3f
fc45  a5 b5      	LDA	Zb5
fc47  20 9c fe   Lfc47:	JSR	Sfe9c
fc4a  a9 00      	LDA	#$00	; 0 .
fc4c  4c c1 fb   	JMP	Lfbc1

fc4f  e6 cd      Sfc4f:	INC	Zcd
fc51  a5 cd      	LDA	Zcd
fc53  cd 87 f8   	CMP	Df887
fc56  f0 02      	BEQ	Lfc5a
fc58  b0 16      	BCS	Lfc70
fc5a  85 b9      Lfc5a:	STA	Zb9
fc5c  0a         	ASL
fc5d  aa         	TAX
fc5e  ca         	DEX
fc5f  a5 d7      	LDA	wordD6_
fc61  9d 00 01   	STA	D0100,X
fc64  ca         	DEX
fc65  a5 d6      	LDA	wordD6
fc67  9d 00 01   	STA	D0100,X
fc6a  20 c1 fc   	JSR	Sfcc1
fc6d  4c b5 fc   	JMP	Lfcb5
fc70  a2 03      Lfc70:	LDX	#$03	; 3 .
fc72  ad 87 f8   	LDA	Df887
fc75  85 cd      	STA	Zcd
fc77  85 b9      	STA	Zb9
fc79  a8         	TAY
fc7a  88         	DEY
fc7b  a9 00      	LDA	#$00	; 0 .
fc7d  85 cf      	STA	Zcf
fc7f  85 d0      	STA	Zd0
fc81  20 c1 fc   	JSR	Sfcc1
fc84  86 ac      Lfc84:	STX	Zac
fc86  bd 00 01   	LDA	D0100,X
fc89  ca         	DEX
fc8a  ca         	DEX
fc8b  9d 00 01   	STA	D0100,X
fc8e  85 d7      	STA	wordD6_
fc90  a6 ac      	LDX	Zac
fc92  ca         	DEX
fc93  bd 00 01   	LDA	D0100,X
fc96  ca         	DEX
fc97  ca         	DEX
fc98  9d 00 01   	STA	D0100,X
fc9b  85 d6      	STA	wordD6
fc9d  20 c1 fc   	JSR	Sfcc1
fca0  a6 ac      	LDX	Zac
fca2  88         	DEY
fca3  f0 05      	BEQ	Lfcaa
fca5  e8         	INX
fca6  e8         	INX
fca7  4c 84 fc   	JMP	Lfc84
fcaa  a5 d9      Lfcaa:	LDA	wordD8_
fcac  9d 00 01   	STA	D0100,X
fcaf  ca         	DEX
fcb0  a5 d8      	LDA	wordD8
fcb2  9d 00 01   	STA	D0100,X
fcb5  20 3f ff   Lfcb5:	JSR	Sff3f
fcb8  a5 b5      	LDA	Zb5
fcba  85 d6      	STA	wordD6
fcbc  a5 b6      	LDA	Zb6
fcbe  85 d7      	STA	wordD6_
fcc0  60         	RTS

fcc1  18         Sfcc1:	CLC
fcc2  a5 d6      	LDA	wordD6
fcc4  65 cf      	ADC	Zcf
fcc6  85 b5      	STA	Zb5
fcc8  85 cf      	STA	Zcf
fcca  a5 d7      	LDA	wordD6_
fccc  65 d0      	ADC	Zd0
fcce  85 d0      	STA	Zd0
fcd0  85 b6      	STA	Zb6
fcd2  60         	RTS
fcd3  a9 00      Lfcd3:	LDA	#$00	; 0 .
fcd5  85 8c      	STA	Z8c
fcd7  85 b0      	STA	nmi_unkw
fcd9  85 af      	STA	nmi_unkr
fcdb  a5 93      	LDA	flag93
fcdd  c9 01      	CMP	#$01	; 1 .
fcdf  d0 04      	BNE	Lfce5
fce1  a9 00      	LDA	#$00	; 0 .
fce3  85 93      	STA	flag93
fce5  4c 0e f9   Lfce5:	JMP	Lf90e

fce8  a5 da      strun9:	LDA	Zda
fcea  f0 07      	BEQ	Lfcf3
fcec  a9 00      	LDA	#$00	; 0 .
fcee  85 93      	STA	flag93
fcf0  4c 0e f9   	JMP	Lf90e
fcf3  ad 6e f8   Lfcf3:	LDA	Df86e
fcf6  49 ff      	EOR	#$ff	; 255 .
fcf8  2d 00 1c   	AND	dataB
fcfb  f0 09      	BEQ	Lfd06
fcfd  ad 6e f8   	LDA	Df86e
fd00  20 0c ff   	JSR	Sff0c
fd03  4c 0c fd   	JMP	Lfd0c
fd06  ad 6e f8   Lfd06:	LDA	Df86e
fd09  20 f4 fe   	JSR	Sfef4
fd0c  a2 14      Lfd0c:	LDX	#$14	; 20 .
fd0e  20 71 fe   	JSR	delay
fd11  4c 0e f9   	JMP	Lf90e

fd14  a5 87      Sfd14:	LDA	Z87
fd16  c5 88      	CMP	Z88
fd18  d0 01      	BNE	Lfd1b
fd1a  60         	RTS
fd1b  ad 68 f8   Lfd1b:	LDA	Df868
fd1e  20 f4 fe   	JSR	Sfef4
fd21  a5 84      	LDA	Z84
fd23  f0 05      	BEQ	Lfd2a
fd25  e6 87      	INC	Z87
fd27  4c 2c fd   	JMP	Lfd2c
fd2a  c6 87      Lfd2a:	DEC	Z87
fd2c  a5 87      Lfd2c:	LDA	Z87
fd2e  20 9c fe   	JSR	Sfe9c
fd31  a6 db      	LDX	delaycnt
fd33  20 71 fe   	JSR	delay
fd36  a5 87      	LDA	Z87
fd38  c5 88      	CMP	Z88
fd3a  d0 df      	BNE	Lfd1b
fd3c  60         	RTS

fd3d  ea         Sfd3d:	NOP
fd3e  a5 da      	LDA	Zda
fd40  d0 20      	BNE	Lfd62
fd42  a4 98      	LDY	Z98
fd44  b1 9a      	LDA	(Z9a),Y
fd46  85 ae      	STA	Zae
fd48  a9 00      	LDA	#$00	; 0 .
fd4a  85 86      	STA	Z86
fd4c  20 4d fe   	JSR	settimer
fd4f  a9 c8      	LDA	#$c8	; 200 .
fd51  85 85      	STA	Z85
fd53  20 ac fd   Lfd53:	JSR	Sfdac
fd56  a5 ae      Lfd56:	LDA	Zae
fd58  20 9c fe   	JSR	Sfe9c
fd5b  20 67 ff   	JSR	Sff67
fd5e  a5 95      	LDA	flag95
fd60  f0 05      	BEQ	Lfd67
fd62  a9 00      Lfd62:	LDA	#$00	; 0 .
fd64  85 93      	STA	flag93
fd66  60         	RTS
fd67  a5 90      Lfd67:	LDA	Z90
fd69  f0 e8      	BEQ	Lfd53
fd6b  20 ac fd   	JSR	Sfdac
fd6e  a5 da      	LDA	Zda
fd70  d0 f0      	BNE	Lfd62
fd72  a5 93      	LDA	flag93
fd74  c9 02      	CMP	#$02	; 2 .
fd76  d0 01      	BNE	Lfd79
fd78  60         	RTS
fd79  c9 01      Lfd79:	CMP	#$01	; 1 .
fd7b  d0 d9      	BNE	Lfd56
fd7d  e6 98      	INC	Z98
fd7f  a5 98      	LDA	Z98
fd81  c5 99      	CMP	Z99
fd83  d0 04      	BNE	Lfd89
fd85  a9 00      	LDA	#$00	; 0 .
fd87  85 98      	STA	Z98
fd89  a8         Lfd89:	TAY
fd8a  4c 3d fd   	JMP	Sfd3d

fd8d  a5 80      setdt:	LDA	dtnum
fd8f  0a         	ASL
fd90  18         	CLC
fd91  65 80      	ADC	dtnum
fd93  aa         	TAX
fd94  e8         	INX
fd95  bd e3 f8   	LDA	dtlist,X
fd98  85 96      	STA	curdt
fd9a  e8         	INX
fd9b  bd e3 f8   	LDA	dtlist,X
fd9e  85 97      	STA	curdt_
fda0  a0 05      	LDY	#$05	; 5 .
fda2  b1 96      	LDA	(curdt),Y
fda4  85 81      	STA	dtval5
fda6  18         	CLC
fda7  69 06      	ADC	#$06	; 6 .
fda9  85 ad      	STA	dtval6
fdab  60         	RTS

fdac  ea         Sfdac:	NOP
fdad  a9 00      	LDA	#$00	; 0 .
fdaf  85 90      	STA	Z90
fdb1  85 93      	STA	flag93
fdb3  85 da      	STA	Zda
fdb5  20 df fe   	JSR	Sfedf
fdb8  85 ac      	STA	Zac
fdba  a5 90      	LDA	Z90
fdbc  f0 01      	BEQ	Lfdbf
fdbe  60         	RTS
fdbf  a2 0a      Lfdbf:	LDX	#$0a	; 10 .
fdc1  20 71 fe   	JSR	delay
fdc4  20 23 fe   Lfdc4:	JSR	btnscan
fdc7  20 f7 fd   	JSR	Sfdf7
fdca  a5 92      	LDA	Z92
fdcc  c5 91      	CMP	Z91
fdce  d0 05      	BNE	Lfdd5
fdd0  a9 01      	LDA	#$01	; 1 .
fdd2  85 93      	STA	flag93
fdd4  60         	RTS
fdd5  a9 02      Lfdd5:	LDA	#$02	; 2 .
fdd7  85 93      	STA	flag93
fdd9  a6 92      	LDX	Z92
fddb  ca         	DEX
fddc  bd 57 f8   	LDA	Df857,X
fddf  85 a4      	STA	Za4
fde1  0a         	ASL
fde2  18         	CLC
fde3  65 a4      	ADC	Za4
fde5  aa         	TAX
fde6  e8         	INX
fde7  bd c5 f8   	LDA	strunlist,X
fdea  85 1d      	STA	curstrun
fdec  e8         	INX
fded  bd c5 f8   	LDA	strunlist,X
fdf0  85 1e      	STA	curstrun_
fdf2  a5 92      	LDA	Z92
fdf4  85 91      	STA	Z91
fdf6  60         	RTS

fdf7  ea         Sfdf7:	NOP
fdf8  a5 ac      	LDA	Zac
fdfa  a2 03      	LDX	#$03	; 3 .
fdfc  0a         Lfdfc:	ASL
fdfd  90 03      	BCC	Lfe02
fdff  ca         	DEX
fe00  d0 fa      	BNE	Lfdfc
fe02  8a         Lfe02:	TXA
fe03  85 a2      	STA	Za2
fe05  0a         	ASL
fe06  0a         	ASL
fe07  18         	CLC
fe08  65 9d      	ADC	btn_row
fe0a  85 92      	STA	Z92
fe0c  60         	RTS

fe0d  ea         Sfe0d:	NOP
fe0e  a9 00      	LDA	#$00	; 0 .
fe10  85 93      	STA	flag93
fe12  85 90      	STA	Z90
fe14  85 da      	STA	Zda
fe16  20 df fe   	JSR	Sfedf
fe19  85 ac      	STA	Zac
fe1b  a5 90      	LDA	Z90
fe1d  f0 01      	BEQ	Lfe20
fe1f  60         	RTS
fe20  4c c4 fd   Lfe20:	JMP	Lfdc4

fe23  ea         btnscan:	NOP
fe24  a9 00      	LDA	#$00	; 0 .
fe26  85 8f      	STA	btn_unk0
fe28  aa         	TAX
fe29  a9 fe      	LDA	#$fe	; 254 .
fe2b  8d 01 1c   	STA	dataA
fe2e  e8         btn_nxrow:	INX
fe2f  ad 01 1c   	LDA	dataA
fe32  c9 f0      	CMP	#$f0	; 240 .
fe34  b0 04      	BCS	Lfe3a
fe36  86 9d      	STX	btn_row
fe38  e6 8f      	INC	btn_unk0
fe3a  38         Lfe3a:	SEC
fe3b  2e 01 1c   	ROL	dataA
fe3e  e0 04      	CPX	#$04	; 4 .
fe40  d0 ec      	BNE	btn_nxrow
fe42  a5 8f      	LDA	btn_unk0
fe44  c9 02      	CMP	#$02	; 2 .
fe46  90 04      	BCC	Lfe4c
fe48  a9 01      	LDA	#$01	; 1 .
fe4a  85 da      	STA	Zda
fe4c  60         Lfe4c:	RTS

fe4d  8d 0b 1c   settimer:	STA	auxcon
fe50  ad 04 1c   	LDA	timer1lo
fe53  a9 10      	LDA	#$10	; 16 .
fe55  8d 04 1c   	STA	timer1lo
fe58  a9 27      	LDA	#$27	; 39 '
fe5a  8d 05 1c   	STA	timer1hi
fe5d  60         	RTS

fe5e  a9 00      Sfe5e:	LDA	#$00	; 0 .
fe60  85 a5      	STA	flagA5
fe62  a9 40      	LDA	#$40	; 64 @
fe64  2c 0d 1c   	BIT	int_flag
fe67  f0 07      	BEQ	Lfe70
fe69  ad 04 1c   	LDA	timer1lo
fe6c  a9 01      	LDA	#$01	; 1 .
fe6e  85 a5      	STA	flagA5
fe70  60         Lfe70:	RTS

fe71  ea         delay:	NOP
fe72  a0 c2      Lfe72:	LDY	#$c2	; 194 .
fe74  88         Lfe74:	DEY
fe75  d0 fd      	BNE	Lfe74
fe77  ca         	DEX
fe78  d0 f8      	BNE	Lfe72
fe7a  60         	RTS

fe7b  20 df fe   Sfe7b:	JSR	Sfedf
fe7e  a5 90      	LDA	Z90
fe80  f0 19      	BEQ	Lfe9b
fe82  a9 0b      	LDA	#$0b	; 11 .
fe84  8d 0c 1c   	STA	int_pctrl
fe87  a9 ff      	LDA	#$ff	; 255 .
fe89  8d 03 1c   	STA	dirA
fe8c  a5 8b      	LDA	Z8b
fe8e  8d 01 1c   	STA	dataA
fe91  a9 01      	LDA	#$01	; 1 .
fe93  8d 0c 1c   	STA	int_pctrl
fe96  a9 0f      	LDA	#$0f	; 15 .
fe98  8d 03 1c   	STA	dirA
fe9b  60         Lfe9b:	RTS

fe9c  85 9e      Sfe9c:	STA	Z9e
fe9e  20 a5 fe   	JSR	Sfea5
fea1  20 7b fe   	JSR	Sfe7b
fea4  60         	RTS

fea5  a9 00      Sfea5:	LDA	#$00	; 0 .
fea7  85 a6      	STA	Za6
fea9  a8         	TAY
feaa  a5 9e      	LDA	Z9e
feac  c9 64      	CMP	#$64	; 100 d
feae  90 08      	BCC	Lfeb8
feb0  e9 64      Lfeb0:	SBC	#$64	; 100 d
feb2  c9 64      	CMP	#$64	; 100 d
feb4  b0 fa      	BCS	Lfeb0
feb6  85 9e      	STA	Z9e
feb8  38         Lfeb8:	SEC
feb9  e9 0a      Lfeb9:	SBC	#$0a	; 10 .
febb  90 10      	BCC	Lfecd
febd  85 a2      	STA	Za2
febf  c8         	INY
fec0  18         	CLC
fec1  a9 0a      	LDA	#$0a	; 10 .
fec3  65 a6      	ADC	Za6
fec5  85 a6      	STA	Za6
fec7  a5 a2      	LDA	Za2
fec9  38         	SEC
feca  4c b9 fe   	JMP	Lfeb9
fecd  98         Lfecd:	TYA
fece  0a         	ASL
fecf  0a         	ASL
fed0  0a         	ASL
fed1  0a         	ASL
fed2  85 8b      	STA	Z8b
fed4  38         	SEC
fed5  a5 9e      	LDA	Z9e
fed7  e5 a6      	SBC	Za6
fed9  18         	CLC
feda  65 8b      	ADC	Z8b
fedc  85 8b      	STA	Z8b
fede  60         	RTS

fedf  a9 f0      Sfedf:	LDA	#$f0	; 240 .
fee1  8d 01 1c   	STA	dataA
fee4  ad 01 1c   	LDA	dataA
fee7  c9 f0      	CMP	#$f0	; 240 .
fee9  90 08      	BCC	Lfef3
feeb  a9 01      	LDA	#$01	; 1 .
feed  85 90      	STA	Z90
feef  a9 00      	LDA	#$00	; 0 .
fef1  85 93      	STA	flag93
fef3  60         Lfef3:	RTS

fef4  85 a2      Sfef4:	STA	Za2
fef6  49 ff      	EOR	#$ff	; 255 .
fef8  0d 00 1c   	ORA	dataB
fefb  8d 00 1c   	STA	dataB
fefe  a5 a2      	LDA	Za2
ff00  cd 68 f8   	CMP	Df868
ff03  d0 06      	BNE	Lff0b
ff05  2d 00 1c   	AND	dataB
ff08  8d 00 1c   	STA	dataB
ff0b  60         Lff0b:	RTS

ff0c  85 a2      Sff0c:	STA	Za2
ff0e  2d 00 1c   	AND	dataB
ff11  8d 00 1c   	STA	dataB
ff14  60         	RTS
ff15             unusedFF15:	.byte	$a9,$01,$85,$af,$a9,$64,$85,$85	; ".....d.."
ff1d             	.byte	$a9,$88,$85,$a3,$a9,$00,$85,$b0	; "........"
ff25             	.byte	$85,$95,$85,$86,$20,$4d,$fe,$a5	; ".... M.."
ff2d             	.byte	$b0,$d0,$0a,$20,$67,$ff,$a5,$95	; "... g..."
ff35             	.byte	$f0,$f5,$20,$83,$ff,$a9,$00,$85	; ".. ....."
ff3d             	.byte	$b0,$60                        	; ".`"

ff3f  a9 00      Sff3f:	LDA	#$00	; 0 .
ff41  85 c3      	STA	Zc3
ff43  85 c2      	STA	Zc2
ff45  a2 10      	LDX	#$10	; 16 .
ff47  26 b5      Lff47:	ROL	Zb5
ff49  26 b6      	ROL	Zb6
ff4b  26 c2      	ROL	Zc2
ff4d  26 c3      	ROL	Zc3
ff4f  38         	SEC
ff50  a5 c2      	LDA	Zc2
ff52  e5 b9      	SBC	Zb9
ff54  a8         	TAY
ff55  a5 c3      	LDA	Zc3
ff57  e5 ba      	SBC	Zba
ff59  90 04      	BCC	Lff5f
ff5b  84 c2      	STY	Zc2
ff5d  85 c3      	STA	Zc3
ff5f  ca         Lff5f:	DEX
ff60  d0 e5      	BNE	Lff47
ff62  26 b5      	ROL	Zb5
ff64  26 b6      	ROL	Zb6
ff66  60         	RTS

ff67  20 5e fe   Sff67:	JSR	Sfe5e
ff6a  a5 a5      	LDA	flagA5
ff6c  f0 14      	BEQ	Lff82
ff6e  e6 86      	INC	Z86
ff70  a5 86      	LDA	Z86
ff72  c5 85      	CMP	Z85
ff74  f0 08      	BEQ	Lff7e
ff76  a9 00      	LDA	#$00	; 0 .
ff78  20 4d fe   	JSR	settimer
ff7b  4c 82 ff   	JMP	Lff82
ff7e  a9 01      Lff7e:	LDA	#$01	; 1 .
ff80  85 95      	STA	flag95
ff82  60         Lff82:	RTS

ff83  a9 00      Sff83:	LDA	#$00	; 0 .
ff85  85 8c      	STA	Z8c
ff87  a9 ff      Lff87:	LDA	#$ff	; 255 .
ff89  85 8b      	STA	Z8b
ff8b  20 7b fe   	JSR	Sfe7b
ff8e  a2 63      	LDX	#$63	; 99 c
ff90  20 71 fe   	JSR	delay
ff93  a5 a3      	LDA	Za3
ff95  85 8b      	STA	Z8b
ff97  20 7b fe   	JSR	Sfe7b
ff9a  a2 63      	LDX	#$63	; 99 c
ff9c  20 71 fe   	JSR	delay
ff9f  e6 8c      	INC	Z8c
ffa1  a5 8c      	LDA	Z8c
ffa3  c9 05      	CMP	#$05	; 5 .
ffa5  d0 e0      	BNE	Lff87
ffa7  20 ac fd   	JSR	Sfdac
ffaa  60         	RTS

ffab  a9 00      Sffab:	LDA	#$00	; 0 .
ffad  85 8c      	STA	Z8c
ffaf  ad 67 f8   	LDA	Df867
ffb2  20 0c ff   	JSR	Sff0c
ffb5  ad 6c f8   Lffb5:	LDA	Df86c
ffb8  49 ff      	EOR	#$ff	; 255 .
ffba  2d 00 1c   	AND	dataB
ffbd  d0 16      	BNE	Lffd5
ffbf  ad 68 f8   	LDA	Df868
ffc2  20 f4 fe   	JSR	Sfef4
ffc5  e6 8c      	INC	Z8c
ffc7  a5 8c      	LDA	Z8c
ffc9  c5 ad      	CMP	dtval6
ffcb  b0 08      	BCS	Lffd5
ffcd  a6 db      	LDX	delaycnt
ffcf  20 71 fe   	JSR	delay
ffd2  4c b5 ff   	JMP	Lffb5
ffd5  a9 00      Lffd5:	LDA	#$00	; 0 .
ffd7  85 87      	STA	Z87
ffd9  60         	RTS

ffda  18         timeout:	CLC
ffdb  a5 d6      	LDA	wordD6
ffdd  69 01      	ADC	#$01	; 1 .
ffdf  85 d6      	STA	wordD6
ffe1  85 d8      	STA	wordD8
ffe3  a5 d7      	LDA	wordD6_
ffe5  69 00      	ADC	#$00	; 0 .
ffe7  85 d7      	STA	wordD6_
ffe9  85 d9      	STA	wordD8_
ffeb  60         	RTS
ffec             	.byte	$00,$00,$00,$00,$00,$00,$00,$00	; "........"
fff4             	.byte	$00,$00,$00,$00,$00,$02,$1e,$f8	; "........"
fffc             resetV:	.byte	$00,$f8,$00,$00                	; ""





Cross References

Symbol    Value  References
D0100     0100   fcb2 fcac fc98 fc93 fc8b fc86 fc67 fc61 
Df847     f847   f91e 
Df84c     f84c   f941 
Df857     f857   fddc 
Df867     f867   f976 f969 fa07 fa2d faaf faa2 ffaf 
Df868     f868   f995 fd1b ffbf ff00 
Df869     f869   fad5 fb26 faff 
Df86a     f86a   fb58 fb4f 
Df86b     f86b   fb20 
Df86c     f86c   ffb5 
Df86d     f86d   fabc faf0 
Df86e     f86e   fd06 fcfd fcf3 
Df887     f887   fc72 fc53 
Df888     f888   fb15 
Df889     f889   fb0a 
Df91f     f91f   f921 
Df920     f920   f926 
Df942     f942   f944 
Df943     f943   f949 
Lf838     f838   f832 
Lf8ef     f8ef   f8f6 f912 
Lf8f9     f8f9   f8f1 
Lf8fe     f8fe   f903 
Lf905     f905   f910 
Lf90e     f90e   f935 f95b f9cb fa65 fab8 fa7d fa71 facd fb35 fb87 fce5 fbb6 
Lf90e     f90e   fd11 fcf0 
Lf976     f976   f967 
Lf980     f980   f9d4 f973 
Lf98d     f98d   f982 
Lf995     f995   f98a 
Lf99b     f99b   f991 f986 
Lf9b0     f9b0   f9a9 
Lf9b2     f9b2   f9ad 
Lf9b8     f9b8   f9c4 
Lf9bf     f9bf   f9db 
Lf9ce     f9ce   f9bd 
Lf9f6     f9f6   f9e5 
Lfa25     fa25   fa18 fa16 
Lfa44     fa44   fa3a 
Lfa48     fa48   fa00 f9f8 f9f3 f9eb 
Lfa65     fa65   fa60 fa5a 
Lfa74     fa74   fa6b 
Lfa80     fa80   fa78 
Lfa8e     fa8e   fa84 
Lfa93     fa93   fa8b 
Lfaab     faab   fa9c 
Lfab5     fab5   faa8 
Lfac6     fac6   faf8 
Lfad0     fad0   fac4 
Lfadf     fadf   faea 
Lfb26     fb26   faec 
Lfb39     fb39   fb84 fb3e 
Lfb58     fb58   fb4d 
Lfb5e     fb5e   fb55 
Lfb72     fb72   fb7e 
Lfb87     fb87   fb82 fb7a 
Lfb8e     fb8e   fb93 
Lfba8     fba8   fbb1 
Lfbb9     fbb9   fc08 fbaa 
Lfbc1     fbc1   fc4c 
Lfbcb     fbcb   fbd4 
Lfbdd     fbdd   fbcd 
Lfbee     fbee   fbfc fbf7 
Lfbff     fbff   fbd8 
Lfc01     fc01   fc06 
Lfc0b     fc0b   fbf0 
Lfc17     fc17   fc12 
Lfc32     fc32   fc25 fc21 fc1b 
Lfc47     fc47   fc2f 
Lfc5a     fc5a   fc56 
Lfc70     fc70   fc58 
Lfc84     fc84   fca7 
Lfcaa     fcaa   fca3 
Lfcb5     fcb5   fc6d 
Lfcd3     fcd3   fbda 
Lfce5     fce5   fcdf 
Lfcf3     fcf3   fcea 
Lfd06     fd06   fcfb 
Lfd0c     fd0c   fd03 
Lfd1b     fd1b   fd3a fd18 
Lfd2a     fd2a   fd23 
Lfd2c     fd2c   fd27 
Lfd53     fd53   fd69 
Lfd56     fd56   fd7b 
Lfd62     fd62   fd70 fd40 
Lfd67     fd67   fd60 
Lfd79     fd79   fd76 
Lfd89     fd89   fd83 
Lfdbf     fdbf   fdbc 
Lfdc4     fdc4   fe20 
Lfdd5     fdd5   fdce 
Lfdfc     fdfc   fe00 
Lfe02     fe02   fdfd 
Lfe20     fe20   fe1d 
Lfe3a     fe3a   fe34 
Lfe4c     fe4c   fe46 
Lfe70     fe70   fe67 
Lfe72     fe72   fe78 
Lfe74     fe74   fe75 
Lfe9b     fe9b   fe80 
Lfeb0     feb0   feb4 
Lfeb8     feb8   feae 
Lfeb9     feb9   feca 
Lfecd     fecd   febb 
Lfef3     fef3   fee9 
Lff0b     ff0b   ff03 
Lff47     ff47   ff60 
Lff5f     ff5f   ff59 
Lff7e     ff7e   ff74 
Lff82     ff82   ff7b ff6c 
Lff87     ff87   ffa5 
Lffb5     ffb5   ffd2 
Lffd5     ffd5   ffcb ffbd 
Sfa03     fa03   f9fd f9ed 
Sfa29     fa29   f9fa f9f0 
Sfc4f     fc4f   fc14 
Sfcc1     fcc1   fc9d fc81 fc6a 
Sfd14     fd14   fa25 fa44 fab5 
Sfd3d     fd3d   f92b fd8a f94e 
Sfdac     fdac   fd6b fd53 fa55 fb72 fc01 fbcf ffa7 f8fe 
Sfdf7     fdf7   fdc7 
Sfe0d     fe0d   f9bf fb8e f8f3 
Sfe5e     fe5e   f9b8 fbf2 ff67 
Sfe7b     fe7b   fb66 ff97 ff8b fea1 
Sfe9c     fe9c   fd58 f99d fd2e fad2 fafc fc47 f8fb 
Sfea5     fea5   fe9e 
Sfedf     fedf   fb39 fe7b fdb5 fe16 
Sfef4     fef4   f979 f998 fa0a fd1e faa5 ffc2 fad8 fb02 fb52 fd09 
Sff0c     ff0c   f96c fa30 fab2 ffb2 fb29 fb23 fb5b fd00 
Sff3f     ff3f   fcb5 fc42 
Sff67     ff67   fd5b fb75 fbac 
Sff83     ff83   faca fbb3 
Sffab     ffab   f8c2 fa7a 
Z84       0084   f97e f980 f971 fa05 fa2b faad fd21 faa0 
Z85       0085   fd51 f9d2 f9b2 fb70 ff72 fb9b 
Z86       0086   fd4a f9d0 f9ce f9a2 fb60 ff70 ff6e fb9f 
Z87       0087   f993 f98d f99b f988 f984 f9f6 fa21 fa0e fa40 fa34 f9e7 fd2a 
Z87       0087   fd36 fd2c fd25 fd14 fa98 ffd7 fad0 fafa f8f9 
Z88       0088   fa1c fa12 fa3e fa38 fd38 fd16 fa9a fa96 
Z8b       008b   fb64 ff95 ff89 fedc feda fed2 fe8c 
Z8c       008c   f89c f9b6 f9a7 f961 ffc7 ffc5 ffad fae6 fae4 fadd fcd5 ffa1 
Z8c       008c   ff9f ff85 
Z8d       008d   f8a2 fb62 fb4b fb45 
Z90       0090   f8ab fd67 f9c2 fb3c fc04 fb91 fe7e fdba fdaf feed fe1b fe12 
Z90       0090   f8ef 
Z91       0091   f8a4 fdf4 fdcc 
Z92       0092   f963 fa5c fa8f fa87 fa80 fa74 fe0a fdf2 fdd9 fdca 
Z98       0098   f92e f918 fd87 fd7f fd7d fd42 f951 f93b 
Z99       0099   f91c fd81 f93f 
Z9a       009a   f924 fd44 f947 
Z9b       009b   f929 f94c 
Z9e       009e   fed5 feb6 feaa fe9c 
Za0       00a0   f8ad fa4e fa48 f9e3 
Za1       00a1   fa23 fa10 fa42 fa36 f9e1 
Za2       00a2   fefe fef4 ff0c fec7 febd fe03 
Za3       00a3   fac8 ff93 fb97 
Za4       00a4   fde3 fddf 
Za6       00a6   fed7 fec5 fec3 fea7 
Zac       00ac   fca0 fc90 fc84 fdb8 fdf8 fe19 
Zae       00ae   fd56 fd46 
Zb5       00b5   fcc6 fcb8 ff62 ff47 fc45 fc34 
Zb6       00b6   fcd0 fcbc ff64 ff49 fc38 
Zb7       00b7   fbc7 
Zb9       00b9   fc77 fc5a ff52 fc40 
Zba       00ba   ff57 fc3c 
Zbb       00bb   fbc9 
Zc2       00c2   ff5b ff50 ff4b ff43 
Zc3       00c3   ff5d ff55 ff4d ff41 
Zcc       00cc   fc10 fbff fba3 
Zcd       00cd   fc75 fc51 fc4f fbbf 
Zcf       00cf   fc7d fcc8 fcc4 fbbb 
Zd0       00d0   fc7f fcce fccc fbbd 
Zda       00da   fd6e fd3e fa69 fdb3 fe4a fe14 fce8 
auxcon    1c0b   fb32 fb1d fb07 fc0d fbdf fe4d 
btn_nxrow  fe2e   fe40 
btn_row   009d   fe36 fe08 
btn_unk0  008f   fe42 fe38 fe26 
btnscan   fe23   fdc4 
curdt     0096   fda2 fd98 fa94 
curdt_    0097   fd9e 
curstrun  001d   f90b fdea 
curstrun_  001e   fdf0 
dataA     1c01   f829 fe8e fee4 fee1 fe3b fe2f fe2b 
dataB     1c00   ffba fac1 faf5 ff08 ff05 fefb fef8 ff11 ff0e fcf8 
delay     fe71   f9c8 fa52 fd33 ffcf fae1 fb18 fb42 ff9c ff90 fd0e fdc1 
delaycnt  00db   f8c0 f959 fd31 ffcd 
delaycnts  f83a   f8bd f956 
dirA      1c03   f892 fe98 fe89 
dirB      1c02   f897 
dtabA     f86f   f8e3 
dtabA     f875   f8e6 
dtabA     f87b   f8e9 
dtabA     f881   f8ec 
dtlist    f8e3   fd9b fd95 
dtnum     0080   f8b2 fd91 fd8d f930 f916 
dtnuminit  f844   f8af 
dtval5    0081   fda4 f98f fa1f fa1a fa14 f9e9 
dtval6    00ad   fda9 ffc9 
flag93    0093   f89e fd72 fd64 fa58 fa6f fb7c fce3 fcdb fbd2 fdb1 f907 f901 
flag93    0093   fef1 fdd7 fdd2 fe10 f90e fcee 
flag95    0095   fd5e fb78 ff80 fbaf f909 
flagA5    00a5   f9bb fbf5 fe6e fe60 ff6a 
init      f88a   f800 
int_ena   1c0e   f88d 
int_flag  1c0d   f821 fe64 
int_pctrl  1c0c   f8a8 fe93 fe84 
nmi       f81e   0000 
nmi_unkr  00af   f830 f8a0 fb2e fcd9 fb8c 
nmi_unkw  00b0   f836 f82e fb30 fbee fbec fcd7 fbcb fbc1 fba8 fba1 
nottime   f829   f824 
reset     f800   0000 
setdt     fd8d   f8b4 f932 
settimer  fe4d   fd4c f9d8 f9a4 fb6b ff78 fba5 
stnum     00dc   f8ba f953 f939 
stnumlist  f845   f8b7 
strun0    f915   f8c5 0000 
strun1    f938   f8c8 0000 
strun2    f95e   f8cb 0000 
strun3    f9de   f8ce fa62 0000 
strun4    fa68   f8d1 0000 
strun5    fabb   f8d4 0000 
strun6    faef   f8d7 0000 
strun7    fb38   f8da 0000 
strun8    fb8a   f8dd 0000 
strun9    fce8   f8e0 0000 
strunlist  f8c5   fded fde7 
timeout   ffda   f826 fbf9 
timer1hi  1c05   fb12 fbe9 fe5a 
timer1lo  1c04   fb0d fbe4 fe69 fe55 fe50 
wordD6    00d6   fc9b fcc2 fcba fc65 fc32 fc28 fc1d ffdf ffdb fbc3 
wordD6_   00d7   fc8e fcca fcbe fc5f fc36 fc17 ffe7 ffe3 fbc5 
wordD8    00d8   fcb0 ffe1 
wordD8_   00d9   fcaa ffe9 
