; f9dasm: M6800/1/2/3/8/9 / H6309 Binary/OS9/FLEX9 Disassembler V1.79
; Loaded binary file anzeige.bin

;****************************************************
;* Used Labels                                      *
;****************************************************

; ----------------------------------------------------------------------
;
;    Naming conventions:
;      _####     local branch; woud be local label in assemblers that support it
;      _rts_#### local branch to RTS instruction
;      U.####    unknown I/O port at address ####
;

M.0000          EQU  $0000
M.0003          EQU  $0003
M.0004          EQU  $0004
M.003F          EQU  $003F
M.0040          EQU  $0040
M.0042          EQU  $0042
M.0043          EQU  $0043
M.0044          EQU  $0044
M.0046          EQU  $0046
M.0048          EQU  $0048
M.0049          EQU  $0049
M.004A          EQU  $004A
M.004B          EQU  $004B
M.004C          EQU  $004C
M.004D          EQU  $004D
M.0050          EQU  $0050
M.0051          EQU  $0051
M.0052          EQU  $0052
M.0053          EQU  $0053
M.0054          EQU  $0054
M.0056          EQU  $0056
M.0058          EQU  $0058
M.005A          EQU  $005A
M.005C          EQU  $005C
M.005D          EQU  $005D
M.005E          EQU  $005E
M.005F          EQU  $005F
M.0060          EQU  $0060
M.0061          EQU  $0061
M.0062          EQU  $0062
M.0063          EQU  $0063
M.0064          EQU  $0064
M.0065          EQU  $0065
M.0067          EQU  $0067
M.0068          EQU  $0068
M.0069          EQU  $0069
M.006A          EQU  $006A
M.006B          EQU  $006B
const_006F      EQU  $006F
stack_unk       EQU  $007B            ; stack pointer stored here a couple of
                                      ;   times; don't know why
RAMTOP          EQU  $007F

; ----------------------------------------------------------------------
;
;    MC6821 PIAs
;
;    • DDR: 0=input 1=output
;    • Control Register bits and functions:
;        7  IRQA1 flag: goes high on CA1 transition; cleared by DR (A) read
;        6  IRQA2 flag: CA2=input: like IRQA1.  CA2=output: 0
;        5  CA2 direction: 0=input, 1=output
;        4  depends on bit 5
;        3  depends on bit 5
;        2  0=DDR selected; 1=data register selected
;        1  IRQ1A set by CA1 transition direction: 0=↓; 1=↑
;        0  /IRQA pin asserted on CA1 active transition: 0=disable; 1=enable
;           (When b0 changed 0→1, immediate /IRQA if IRQ1A is set)
;    • CA1 is input-only
;

P1A_DR          EQU  $0080            ; PIA 1 port A data/direction register
P1A_CR          EQU  $0081            ; PIA 1 port A control register
P1B_DR          EQU  $0082            ; etc.
P1B_CR          EQU  $0083

P2A_DR          EQU  $0100
P2A_CR          EQU  $0101
P2B_DR          EQU  $0102
P2B_CR          EQU  $0103

; ----------------------------------------------------------------------

M.05FF          EQU  $05FF
M.6F5F          EQU  $6F5F
M.8FFF          EQU  $8FFF
M.9000          EQU  $9000
M.9681          EQU  $9681
M.B7AF          EQU  $B7AF
M.BDFA          EQU  $BDFA
const_CFFF      EQU  $CFFF
M.D000          EQU  $D000

;****************************************************
;* Program Code / Data Areas                        *
;****************************************************

                ORG  $F000

                FCB  'E,' ,'B,' ,'E,' ,'L,' ,'T,' ,' ,'G,'M,'B,'H,' ,'7
                FCB  '3,'0,'2,' ,'O,'S,'T,'F,'I,'L,'D,'E,'R,'N,' ,' ,' 
                FCB  '*,' ,'A,'N,'2,'0,'0,'1,'.,'C,' ,'*,' ,' ,'T,'E,'X
                FCB  'T,'P,'R,'O,'M,' ,'F,'E,'H,'L,'T,' ,'!,$04,$19,$00
                FCB  $ff,$ff,$ff,$ff,$ff,$ff,$ff,$ff,$ff,$ff,$ff,$ff,$ff
                FCB  'K,'E,'I,'N,' ,'T,'E,'X,'T,' ,'I,'N,$0d,'M,'E,'L,'D
                FCB  'U,'N,'G,' ,'N,'R,':,'_,'_,'_,'_,$04,$ff,$ff,$ff
                FCB  $ff,$ff,$ff,$ff,$ff,$ff,$ff,$ff,$ff,$ff,$ff,$ff,$ff
                FCB  $ff,$ff,$ff,$ff,$ff,$ff,$ff,$ff,$ff,$ff,$ff,$ff,$ff
                FCB  $ff,$ff,$ff,$ff,$ff,$ff,$ff,$ff,$ff,$ff,$ff,$ff,$ff
                FCB  $ff,$ff,$ff,$ff,$ff,$ff,$ff,$ff,$ff,$0F,$8E,$00,$7F
                CLRA                  ; A ← $00
                LDAB #$7F
                STAA P1B_CR           ; $00 = DDR selected, CA2=input, no IRQs
                STAB P1B_DR           ; $7F = b7:input b6-0:output
                STAA P1A_CR           ; $00 = DDR selected, CA2=input, no IRQs
                STAA P1A_DR           ; $00 = b7-0:input
                STAA P2B_CR
                LDAB #$FF
                STAB P2B_DR
                STAA P2A_CR
                STAA P2A_DR
                LDAB #$3D             ; $3D = 0011.1101
                STAB P1B_CR
                STAA P1B_DR
                STAB P2A_CR
                LDAB #$3C             ; $3C = 0011.1100
                STAB P1A_CR
                LDAB #$35             ; $35 = 0011.1001
                STAB P2B_CR
                STAA P1A_DR
                STAA P2A_DR
                LDAB #$FF
                STAA P2B_DR
                LDAA #$FF
                JSR  Z.FA54
                LDX  #RAMTOP
Z.F0E1          CLR  ,X
                DEX
                BNE  Z.F0E1
                CLR  ,X
                JSR  Z.FA6F
                JSR  Z.FA81
                BPL  Z.F133
                BITA #$20
                BEQ  Z.F13D
                LDAA P2B_DR
                LDAA P2A_DR
                CLI
                JSR  Z.FAAA
                JSR  Z.FA81
                BPL  Z.F133
                BITA #$10
                BNE  Z.F12A
                SEI
                LDAA P2A_DR
                BMI  Z.F114
                LDAA #$FF
                STAA M.005E
                JSR  Z.F9D2
Z.F114          JSR  Z.FA6F
                LDAA P2A_DR
                LDAB P1A_DR
                COMA
                COMB
                ANDA #$03
                STAA M.0068
                STAB M.0067
                JSR  Z.FC0C
Z.F127          JMP  Z.FDE4
Z.F12A          LDAA P2B_DR
                LDAA P2A_DR
                CLI
                BRA  Z.F127
Z.F133          SEI
                CLR  >M.005E
                JSR  Z.F9D2
                JMP  reset
Z.F13D          JSR  _sub_F94F
                JSR  Z.FA81
                BITA #$20
                BEQ  Z.F13D
                LDAA #$FF
                JSR  Z.FA54
                JMP  reset
                LDAB P2A_DR
                COMB
                LDAA #$BB
                STAA P2B_DR
                ASLB
                JSR  Z.F9C0
                JSR  Z.F9C0
                LDAA #$2E
                STAA P1B_DR
                PSHB
                JSR  Z.FA64
                PULB
                DEC  P2B_DR
                LDAA #$20
                STAA P1B_DR
                PSHB
                JSR  Z.FA64
                PULB
                DEC  P2B_DR
                ASLB
                ASLB
                ASLB
                ASLB
                LDAA #$B7
                STAA P2B_DR
                JSR  Z.F9C0
                JSR  Z.F9C0
                LDAA #$20
                STAA P1B_DR
                JSR  Z.FA64
                DEC  P2B_DR
                LDAB P1A_DR
                COMB
                ASLB
                JSR  Z.F9C0
                LDAA #$AF
                STAA P2B_DR
                JSR  Z.F9C0
                JSR  Z.F9C0
                JSR  Z.F9C0
                LDAA #$20
                STAA P1B_DR
                PSHB
                JSR  Z.FA64
                PULB
                LDAA #$9F
                STAA P2B_DR
                JSR  Z.F9C0
                JSR  Z.F9C0
                JSR  Z.F9C0
                JSR  Z.F9C0
                RTS
                LDAA #$31
                BCS  Z.F1C6
                LDAA #$30
Z.F1C6          STAA P1B_DR
                PSHB
                JSR  Z.FA64
                PULB
                DEC  P2B_DR
                ASLB
                RTS
                LDAA #$2A
                JSR  Z.FA54
                LDAA #$01
                STAA P1B_DR
                LDAA P2B_CR
                ORAA #$08
                STAA P2B_CR
                LDAA P2A_CR
                ANDA #$F7
                STAA P2A_CR
                LDAA #$04
Z.F1ED          DECA
                STAA P2B_DR
                JSR  Z.FA64
                CMPA #$FF
                BNE  Z.F1ED
Z.F1F8          LDAA P2B_CR
                ORAA #$08
                STAA P2B_CR
                LDX  #unused
                LDAA #$07
Z.F205          TST  >M.005E
                BEQ  Z.F20F
                TST  P2A_DR
                BMI  Z.F23E
Z.F20F          DEX
                BNE  Z.F205
                DECA
                BNE  Z.F205
                LDX  #unused
                LDAA #$0A
                LDAB P2B_CR
                ANDB #$F7
                STAB P2B_CR
Z.F222          TST  >M.005E
                BEQ  Z.F22C
                TST  P2A_DR
                BMI  Z.F23E
Z.F22C          DEX
                BNE  Z.F222
                DECA
                BNE  Z.F222
                TST  >M.005E
                BNE  Z.F1F8
                JSR  Z.FA81
                BMI  Z.F23E
                BRA  Z.F1F8
Z.F23E          LDAA P2B_CR
                ANDA #$F7
                STAA P2B_CR
                LDAA P2A_CR
                ORAA #$08
                STAA P2A_CR
                LDAA #$FF
                JSR  Z.FA54
                RTS
                STAA P1B_DR
                LDAA #$04
Z.F258          DECA
                STAA P2B_DR
                JSR  Z.FA64
                CMPA #$FF
                BNE  Z.F258
                RTS
                LDAB P1B_CR
                ANDB #$F7
                STAB P1B_CR
                ORAB #$08
                STAB P1B_CR
                RTS
                LDX  #M.003F
                LDAA #$7F
Z.F274          STAA ,X
                DEX
                BNE  Z.F274
                STAA ,X
                LDX  #M.0000
                STX  M.0048
                RTS
                LDAA #$FF
                STAA M.006B
                STAA P2B_DR
                LDAA #$FE
Z.F28A          LDAB P1B_DR
                STAA P2B_DR
                LDAB P1B_CR
                BPL  Z.F296
                CLC
                BRA  Z.F297
Z.F296          SEC
Z.F297          ROR  >M.006B
                ROLA
                CLR  P2B_DR
                COM  P2B_DR
                CMPA #$FF
                BNE  Z.F28A
                LDAA M.006B
                STAA M.0065
                RTS
                LDX  #M.9000
                STX  M.0040
                TST  ,X
                BEQ  Z.F2D4
Z.F2B3          CPX  #M.D000
                BEQ  Z.F2D1
                CPX  #M.F842
                BEQ  Z.F2D1
                LDAA #$19
                CMPA ,X
                BEQ  Z.F2D1
                LDAA ,X
                INX
                BPL  Z.F2B3
                LDAA ,X
                CMPA #$FF
                BEQ  Z.F2D1
                JMP  Z.FAB3
Z.F2D1          STX  M.0042
                RTS
Z.F2D4          LDX  #M.F800
                STX  M.0040
                JMP  Z.FAB3
                LDX  M.0050
                BNE  Z.F2E5
                LDAA #$30
                STAA M.0003
                RTS
Z.F2E5          LDAA M.0050
                LDAB M.0051
                LDX  #M.0000
                STX  M.0058
                LDX  #M.FB39
Z.F2F1          CLR  >M.005C
Z.F2F4          SUBB $01,X
                SBCA ,X
                BCS  Z.F2FF
                INC  >M.005C
                BRA  Z.F2F4
Z.F2FF          ADDB $01,X
                ADCA ,X
                PSHA
                STX  M.005A
                LDX  M.0058
                LDAA M.005C
                ADDA #$30
                STAA ,X
                PULA
                INX
                STX  M.0058
                LDX  M.005A
                INX
                INX
                CPX  #M.FB43
                BNE  Z.F2F1
                LDX  #M.0000
Z.F31E          LDAA $01,X
                CMPA #$30
                BNE  Z.F32E
                LDAA #$20
                STAA ,X
                INX
                CPX  #M.0004
                BNE  Z.F31E
Z.F32E          LDAA $01,X
                STAA ,X
                INX
                CPX  #M.0004
                BNE  Z.F32E
                RTS
                BEQ  Z.F34B
                FCB  $03
                EORB ,X
                LSR  ,X
                CLV
                FCB  $00
                NOP
                STX  M.9681
                ORAA #$3C
                STAA P1A_CR
                CLR  >M.0069
                CLR  >M.006A
                CLR  >M.0063
                LDAB P1A_DR
                LDAA P2A_DR
                COMA
                TST  >M.005D
                BNE  Z.F3D0
                COMB
                STAB M.0067
                STAA M.0068
                ANDA #$C0
                STAA M.005D
                CMPA #$C0
                BNE  Z.F3A6
                TSTB
                BPL  Z.F39C
                JSR  Z.FC46
                LDAA P2A_CR
                ANDA #$FE
                STAA P2A_CR
                LDAA P2B_CR
                ORAA #$02
                STAA P2B_CR
                LDAA P2B_DR
                LDAA P2A_DR
                TST  >M.0063
                BNE  Z.F38D
                RTI
Z.F38D          LDS  #RAMTOP
                CLI
                JMP  Z.FDE4
                BPL  Z.F3FB
                TSTA
                BPL  Z.F3DD
                JMP  Z.FB6E
Z.F39C          BITB #$40
                BEQ  Z.F3FB
Z.F3A0          JSR  Z.FC46
                JMP  Z.FB71
Z.F3A6          CMPA #$80
                BEQ  Z.F3FF
                LDAA P2A_DR
                BPL  Z.F3BE
                BITA #$40
                BNE  Z.F3DD
                LDAA P2A_CR
                ORAA #$02
                STAA P2A_CR
                JMP  Z.FB81
Z.F3BE          LDAA P2A_DR
                COMA
                STAA M.0068
                ANDA #$C0
                STAA M.005D
                LDAB P1A_DR
                COMB
                STAB M.0067
                JMP  Z.FB94
Z.F3D0          ANDA #$C0
                BNE  Z.F405
                LDAB M.005D
                CMPB #$40
                BNE  Z.F3DD
                JSR  Z.FC0C
Z.F3DD          CLR  >M.005D
                LDAA P2A_CR
                ANDA #$FD
                STAA P2A_CR
                LDAA P2B_CR
                ANDA #$FD
                STAA P2B_CR
                LDAA P2A_CR
                ORAA #$01
                STAA P2A_CR
                JMP  Z.FB81
Z.F3FB          BITB #$40
                BNE  Z.F3A0
Z.F3FF          JSR  Z.FC1B
                JMP  Z.FB71
Z.F405          CMPA #$40
                BNE  Z.F3BE
                JMP  Z.FBDD
                LDAB M.0068
                ANDB #$03
                STAB M.0052
                LDAA M.0067
                STAA M.0053
                LDAA #$FF
                STAA M.0063
                RTS
                LDAB M.0067
                LDAA M.0068
                BITA #$40
                BNE  Z.F42B
                ANDA #$03
                ASLB
                ROLA
                ASLB
                ROLA
                STAA M.0049
Z.F42B          LDX  M.0048
                LDAA M.0067
                ANDA #$3F
                BITA #$20
                BNE  Z.F437
                ORAA #$40
Z.F437          CPX  #M.0040
                BEQ  Z.F445
                CMPA #$1F
                BLS  Z.F445
                STAA ,X
                INX
                STX  M.0048
Z.F445          RTS
                TBA
                TSTB
                BMI  Z.F44F
                ANDB #$3F
                STAB M.0049
                RTS
Z.F44F          ANDB #$0F
                BNE  Z.F457
                JSR  Z.FA6F
                RTS
Z.F457          CMPB #$01
                BNE  Z.F460
                LDAB #$FF
                STAB M.0069
                RTS
Z.F460          CMPB #$02
                BNE  Z.F46E
                LSRA
                LSRA
                LSRA
                LSRA
                ANDA #$07
                INCA
                STAA M.006A
                RTS
Z.F46E          CMPB #$03
                BNE  Z.F47B
                LSRA
                LSRA
                LSRA
                LSRA
                ANDA #$07
                STAA M.0064
                RTS
Z.F47B          CMPB #$04
                BNE  Z.F48B
                INS
                INS
                LDAA #$FF
                STAA M.005E
                JSR  Z.F9D2
                JMP  Z.FBDD
Z.F48B          CMPB #$0F
                BNE  Z.F496
                LDAA P1A_CR
                ANDA #$F7
                STAA P1A_CR
                RTS
Z.F496          RTS
                LDX  #M.0000
                STX  M.0044
                LDX  M.0054
                STX  M.004A
                LDX  #M.FDDB
                STX  M.0046
                LDX  M.004A
                CLR  >M.005E
                CLR  >M.005F
                CLR  >M.0061
                CLR  >M.0062
                STX  M.004A
                LDX  M.0046
                LDAA ,X
                INX
                STX  M.0046
                LDX  M.004A
                STAA P2B_DR
                CPX  M.0042
                BEQ  Z.F4F6
                LDAB ,X
                CMPB #$04
                BEQ  Z.F4F6
                CMPB #$0D
                BEQ  Z.F4FF
                CMPB #$1F
                BHI  Z.F4D7
                INX
                JMP  Z.FCBE
Z.F4D7          TSTB
                BPL  Z.F4E0
                PSHA
                LDAA #$FF
                STAA M.0061
                PULA
Z.F4E0          ANDB #$7F
                CMPB #$5F
                BEQ  Z.F511
                CMPB #$7F
                BEQ  Z.F511
                JMP  Z.FD25
Z.F4ED          JMP  Z.FCD3
                JMP  Z.FC97
                JMP  Z.FC9E
Z.F4F6          LDAB M.005E
                ORAB #$80
                STAB M.005E
                JMP  Z.FD48
Z.F4FF          TST  >M.0062
                BEQ  Z.F50A
                COM  >M.0062
                JMP  Z.FCD3
Z.F50A          LDAB #$FF
                STAB M.005F
                JMP  Z.FD48
Z.F511          STX  M.004A
                LDX  M.0054
                STX  M.0056
                LDX  M.0044
                CPX  #M.0040
                BEQ  Z.F523
                LDAB ,X
                INX
                STX  M.0044
Z.F523          LDX  M.004A
                CMPB #$61
                BCS  Z.F52F
                CMPB #$7A
                BHI  Z.F52F
                SUBB #$20
Z.F52F          STAB P1B_DR
                JSR  Z.FA64
                BITA #$03
                BEQ  Z.F556
                DECA
Z.F539          TST  >M.005E
                BMI  Z.F548
                TST  >M.0061
                BNE  Z.F548
                TST  >M.005F
                BEQ  Z.F4ED
Z.F548          LDAB #$7F
                STAA P2B_DR
                JMP  Z.FD25
Z.F550          JMP  Z.FCF0
                JMP  Z.FCF3
Z.F556          STX  M.004A
                LDX  M.0046
                LDAA ,X
                INX
                STX  M.0046
                LDX  M.004A
                CMPA #$7B
                BNE  Z.F57B
                TST  >P1B_DR
                BPL  Z.F57F
                TST  >M.005F
                BNE  Z.F575
                COM  >M.0062
                JMP  Z.FD39
Z.F575          CLR  >M.005F
                JMP  Z.FD39
Z.F57B          CMPA #$FF
                BNE  Z.F539
Z.F57F          TST  >M.005E
                BMI  Z.F5A9
                TST  >M.0061
                BNE  Z.F5A9
                TST  >M.005F
                BNE  Z.F58F
                INX
Z.F58F          LDAB ,X
                CMPB #$0D
                BEQ  Z.F59F
                CMPB #$04
                BEQ  Z.F5A9
                JSR  Z.FE48
                JMP  Z.FD53
Z.F59F          INX
                LDAB ,X
                CMPB #$04
                BEQ  Z.F5A9
                JMP  Z.FD99
Z.F5A9          JSR  Z.FE48
                LDAA M.0065
                ANDA #$08
                BNE  Z.F550
                STX  M.004C
                PSHA
                LDAA M.004C
                CMPA M.0042
                BNE  Z.F5BF
                LDAA M.004D
                CMPA M.0043
Z.F5BF          PULA
                BCS  Z.F5D2
                TST  >M.0060
                BEQ  Z.F5D2
                CLR  >M.0060
                LDAA #$FF
                JSR  Z.FA54
                JMP  Z.FDE4
Z.F5D2          JSR  Z.FA6F
                LDX  M.0050
                INX
                JMP  Z.FE12
                ADDA M.B7AF
                STS  stack_unk
                ASR  M.6F5F
                STX  M.BDFA
                CLR  $7F,X
                FCB  $00
                NEG  $DE,X
                FCB  $52
                STX  M.004C
                BEQ  Z.F614
                LDAA M.0065
                ANDA #$40
                BEQ  Z.F614
                LDX  #M.0000
Z.F5F9          INX
                LDAA #$99
                TAB
                SUBA #$01
                SEC
                ADCA M.004D
                DAA
                STAA M.004D
                TBA
                ADCA M.004C
                DAA
                STAA M.004C
                BNE  Z.F5F9
                TST  >M.004D
                BNE  Z.F5F9
                STX  M.004C
Z.F614          STX  M.0050
                LDX  M.0040
Z.F618          LDAA ,X
                BMI  Z.F62A
                CMPA #$04
                BEQ  Z.F62A
                STX  M.004A
                LDX  M.004C
                BNE  Z.F633
                LDX  M.004A
                BRA  Z.F643
Z.F62A          STX  M.004A
                LDX  M.004C
                BEQ  Z.F63D
                DEX
                STX  M.004C
Z.F633          LDX  M.004A
                INX
                CPX  M.0042
                BNE  Z.F618
                COM  >M.0060
Z.F63D          JSR  Z.FADC
                LDX  #M.F850
Z.F643          STX  M.0054
                JMP  Z.FC97
                STX  M.004A
                PSHA
                LDAA M.004A
                CMPA #$F8
                BNE  Z.F655
                LDAA M.004B
                CMPA #$50
Z.F655          PULA
                BCS  Z.F65E
                LDX  #const_006F
                JMP  Z.FE61
Z.F65E          LDX  #M.05FF
                STX  M.004C
                LDAA M.0065
                TST  >M.0064
                BNE  Z.F670
                COMA
                ANDA #$07
                JMP  Z.FE72
Z.F670          LDAA M.0064
                PSHA
                TST  >M.0069
                BEQ  Z.F68A
                LDAA #$FF
                JSR  Z.FA54
Z.F67D          JSR  Z.FA81
                BPL  Z.F6C3
                TST  >M.0069
                BNE  Z.F67D
                JMP  Z.FEED
Z.F68A          JSR  Z.FA81
                BPL  Z.F6C3
                TST  >M.006A
                BNE  Z.F6D1
                LDAA M.0065
                BITA #$10
                BNE  Z.F6F1
                LDAA P2A_DR
                BPL  Z.F6C3
                SEI
                LDAA P2A_DR
                LDAB P1A_DR
                COMA
                COMB
                ANDA #$03
                STAA M.0068
                STAB M.0067
                STX  M.0050
                LDX  M.0052
                JSR  Z.FC0C
                CPX  M.0052
                BEQ  Z.F6BE
                LDS  #RAMTOP
                JMP  Z.FDE4
Z.F6BE          LDX  M.0050
                JMP  Z.FEF1
Z.F6C3          LDS  #RAMTOP
                JMP  reset
Z.F6C9          DEX
                JMP  Z.FE72
Z.F6CD          DECA
                JMP  Z.FE72
Z.F6D1          LDAA M.006A
                CMPA #$08
                BNE  Z.F6D9
                ADDA #$04
Z.F6D9          LDX  #const_CFFF
Z.F6DC          DEX
                BNE  Z.F6DC
                DECA
                BNE  Z.F6D9
                LDAA #$FF
                JSR  Z.FA54
                LDX  #M.8FFF
Z.F6EA          DEX
                BNE  Z.F6EA
                LDX  M.004A
                INS
                RTS
Z.F6F1          PULA
                CPX  #M.0000
                BNE  Z.F6C9
                LDX  M.004C
                TST  >M.0064
                BEQ  Z.F707
                CMPA M.0064
                BLS  Z.F710
                LDAA M.0064
                JMP  Z.FF10
Z.F707          LDAB M.0065
                COMB
                ANDB #$07
                CBA
                BLS  Z.F710
                TBA
Z.F710          TSTA
                BNE  Z.F6CD
                LDX  M.004A
                RTS
                FCC  "      KLARTEXTANZEIGE   AN1A  1x16 Zeichen / AN1C"
                FCC  "  2x16 Zeichen    V3.0   02/1987    Copyright (c)"
                FCC  " by EBELT GmbH, D-7302 Ostfildern 3    "
                FCB  $FF,$FF,$FF,$FF,$FF,$FF,$FF,$FF,$FF,$FF,$FF,$FF,$FF
                FCB  $FF,$FF,$FF,$FF,$FF,$FF,$FF,$FF,$FF,$FF,$FF,$FF,$FF
                FCB  $FF,$FF,$FF,$FF,$FF,$FF,$FF,$FF,$FF,$FF,$FF,$FF,$FF
                FCB  $FF,$FF,$FF,$FF,$FF,$FF,$FF,$FF,$FF,$FF,$FF,$FF,$FF
                FCB  $FF,$FF,$FF,$FF,$FF,$FF,$FF,$FF,$FF,$FF,$FF,$FF,$FF
                FCB  $FF,$FF,$FF,$FF,$FF,$FF,$FF,$FF,$FF,$FF,$FF,$FF,$FF
                FCB  $FF,$FF,$FF,$FF,$FF,$FF,$FF,$FF,$FF,$FF,$FF,$FB
                FCC  "D"
                FCB  $FF,$FF,$FF,$FF,$F8,$A0
M.F800          FCC  "E B E L T  GMBH 7302 OSTFILDERN   * AN2001.C *  T"
                FCC  "EXTPROM FEHLT !"
                FCB  $04,$19
M.F842          FCB  $00,$FF,$FF,$FF,$FF,$FF,$FF,$FF,$FF,$FF,$FF,$FF,$FF
                FCB  $FF
M.F850          FCC  "KEIN TEXT IN"
                FCB  $0D
                FCC  "MELDUNG NR:____"
                FCB  $04,$FF,$FF,$FF,$FF,$FF,$FF,$FF,$FF,$FF,$FF,$FF,$FF
                FCB  $FF,$FF,$FF,$FF,$FF,$FF,$FF,$FF,$FF,$FF,$FF,$FF,$FF
                FCB  $FF,$FF,$FF,$FF,$FF,$FF,$FF,$FF,$FF,$FF,$FF,$FF,$FF
                FCB  $FF,$FF,$FF,$FF,$FF,$FF,$FF,$FF,$FF,$FF,$FF,$FF,$FF

; ----------------------------------------------------------------------
;

reset           SEI                   ; disable IRQ
                LDS  #RAMTOP          ; stack at top of RAM

                ;   PIA setup
                ;   XXX Some comments wrong: check for accuracy and fix!
                CLRA                  ; A ← 0
                LDAB #$7F
                STAA P1B_CR           ; $00 = DDR sel, CA2=input, no IRQs
                STAB P1B_DR           ; $7F = b7:input b6-0:output
                STAA P1A_CR           ; $00 = DDR sel, CA2=input, no IRQs
                STAA P1A_DR           ; $00 = b7-0:input
                STAA P2B_CR           ; $00 = DDR sel, CA2=input, no IRQ
                LDAB #$FF
                STAB P2B_DR           ; $FF = b7-0:output
                STAA P2A_CR           ; $00 = DDR sel, CA2=input, no IRQ
                STAA P2A_DR           ; $00 = b7-0:input
                LDAB #$3D
                STAB P1B_CR           ; $3D = CB1=out IRQ=↑
                STAA P1B_DR           ; $00 = b7-0:input
                STAB P2A_CR           ; $3D = CB2=out IRQ=↑, CA1 IRQ=↑
                LDAB #$3C
                STAB P1A_CR           ; $3C = CA2=out IRQ=↑, CA1 IRQ=∅
                LDAB #$35
                STAB P2B_CR           ; $35 = DR sel, CB2=out IRQ=↑, CB1 IRQ=↓
                STAA P1A_DR           ; $00 =
                STAA P2A_DR           ; $00 =
                LDAB #$FF
                STAA P2B_DR           ; $FF =

                LDAA #$FF             ; param for Z.FA54
                JSR  Z.FA54
                LDX  #RAMTOP
_loop_F8E1      CLR  ,X
                DEX
                BNE  _loop_F8E1
                CLR  ,X
                JSR  Z.FA6F
                JSR  Z.FA81
                BPL  _skip_F933
                BITA #$20
                BEQ  _skip_F93D
                LDAA P2B_DR
                LDAA P2A_DR
                CLI
                JSR  Z.FAAA
                JSR  Z.FA81
                BPL  _skip_F933
                BITA #$10
                BNE  _skip_F92A
                SEI
                LDAA P2A_DR
                BMI  _skip_F914
                LDAA #$FF
                STAA M.005E
                JSR  Z.F9D2
_skip_F914      JSR  Z.FA6F
                LDAA P2A_DR
                LDAB P1A_DR
                COMA
                COMB
                ANDA #$03
                STAA M.0068
                STAB M.0067
                JSR  Z.FC0C
_skip_F927      JMP  Z.FDE4
_skip_F92A      LDAA P2B_DR
                LDAA P2A_DR
                CLI
                BRA  _skip_F927

_skip_F933      SEI
                CLR  >M.005E
                JSR  Z.F9D2
                JMP  reset

_skip_F93D      JSR  _sub_F94F
                JSR  Z.FA81
                BITA #$20
                BEQ  _skip_F93D
                LDAA #$FF
                JSR  Z.FA54
                JMP  reset

; ----------------------------------------------------------------------

_sub_F94F       LDAB P2A_DR
                COMB
                LDAA #$BB
                STAA P2B_DR
                ASLB
                JSR  Z.F9C0
                JSR  Z.F9C0
                LDAA #$2E
                STAA P1B_DR
                PSHB
                JSR  Z.FA64
                PULB
                DEC  P2B_DR
                LDAA #$20
                STAA P1B_DR
                PSHB
                JSR  Z.FA64
                PULB
                DEC  P2B_DR
                ASLB
                ASLB
                ASLB
                ASLB
                LDAA #$B7
                STAA P2B_DR
                JSR  Z.F9C0
                JSR  Z.F9C0
                LDAA #$20
                STAA P1B_DR
                JSR  Z.FA64
                DEC  P2B_DR
                LDAB P1A_DR
                COMB
                ASLB
                JSR  Z.F9C0
                LDAA #$AF
                STAA P2B_DR
                JSR  Z.F9C0
                JSR  Z.F9C0
                JSR  Z.F9C0
                LDAA #$20
                STAA P1B_DR
                PSHB
                JSR  Z.FA64
                PULB
                LDAA #$9F
                STAA P2B_DR
                JSR  Z.F9C0
                JSR  Z.F9C0
                JSR  Z.F9C0
                JSR  Z.F9C0
                RTS
Z.F9C0          LDAA #$31
                BCS  Z.F9C6
                LDAA #$30
Z.F9C6          STAA P1B_DR
                PSHB
                JSR  Z.FA64
                PULB
                DEC  P2B_DR
                ASLB
                RTS
Z.F9D2          LDAA #$2A
                JSR  Z.FA54
                LDAA #$01
                STAA P1B_DR
                LDAA P2B_CR
                ORAA #$08
                STAA P2B_CR
                LDAA P2A_CR
                ANDA #$F7
                STAA P2A_CR
                LDAA #$04
Z.F9ED          DECA
                STAA P2B_DR
                JSR  Z.FA64
                CMPA #$FF
                BNE  Z.F9ED
Z.F9F8          LDAA P2B_CR
                ORAA #$08
                STAA P2B_CR
                LDX  #unused
                LDAA #$07
Z.FA05          TST  >M.005E
                BEQ  Z.FA0F
                TST  P2A_DR
                BMI  Z.FA3E
Z.FA0F          DEX
                BNE  Z.FA05
                DECA
                BNE  Z.FA05
                LDX  #unused
                LDAA #$0A
                LDAB P2B_CR
                ANDB #$F7
                STAB P2B_CR
Z.FA22          TST  >M.005E
                BEQ  Z.FA2C
                TST  P2A_DR
                BMI  Z.FA3E
Z.FA2C          DEX
                BNE  Z.FA22
                DECA
                BNE  Z.FA22
                TST  >M.005E
                BNE  Z.F9F8
                JSR  Z.FA81
                BMI  Z.FA3E
                BRA  Z.F9F8
Z.FA3E          LDAA P2B_CR
                ANDA #$F7
                STAA P2B_CR
                LDAA P2A_CR
                ORAA #$08
                STAA P2A_CR
                LDAA #$FF
                JSR  Z.FA54
                RTS

;   ♠A
Z.FA54          STAA P1B_DR
                LDAA #$04
_loop_FA58      DECA
                STAA P2B_DR
                JSR  Z.FA64
                CMPA #$FF
                BNE  _loop_FA58
                RTS

Z.FA64          LDAB P1B_CR
                ANDB #$F7
                STAB P1B_CR
                ORAB #$08
                STAB P1B_CR
                RTS

Z.FA6F          LDX  #M.003F
                LDAA #$7F
_loop_FA74      STAA ,X
                DEX
                BNE  _loop_FA74
                STAA ,X
                LDX  #M.0000
                STX  M.0048
                RTS

Z.FA81          LDAA #$FF
                STAA M.006B
                STAA P2B_DR
                LDAA #$FE
_loop_FA8A      LDAB P1B_DR
                STAA P2B_DR
                LDAB P1B_CR
                BPL  _skip_FA96
                CLC
                BRA  _skip_FA97
_skip_FA96      SEC
_skip_FA97      ROR  >M.006B
                ROLA
                CLR  P2B_DR
                COM  P2B_DR
                CMPA #$FF
                BNE  _loop_FA8A
                LDAA M.006B
                STAA M.0065
                RTS

Z.FAAA          LDX  #M.9000
                STX  M.0040
                TST  ,X
                BEQ  Z.FAD4
Z.FAB3          CPX  #M.D000
                BEQ  Z.FAD1
                CPX  #M.F842
                BEQ  Z.FAD1
                LDAA #$19
                CMPA ,X
                BEQ  Z.FAD1
                LDAA ,X
                INX
                BPL  Z.FAB3
                LDAA ,X
                CMPA #$FF
                BEQ  Z.FAD1
                JMP  Z.FAB3
Z.FAD1          STX  M.0042
                RTS
Z.FAD4          LDX  #M.F800
                STX  M.0040
                JMP  Z.FAB3
Z.FADC          LDX  M.0050
                BNE  Z.FAE5
                LDAA #$30
                STAA M.0003
                RTS
Z.FAE5          LDAA M.0050
                LDAB M.0051
                LDX  #M.0000
                STX  M.0058
                LDX  #M.FB39
Z.FAF1          CLR  >M.005C
Z.FAF4          SUBB $01,X
                SBCA ,X
                BCS  Z.FAFF
                INC  >M.005C
                BRA  Z.FAF4
Z.FAFF          ADDB $01,X
                ADCA ,X
                PSHA
                STX  M.005A
                LDX  M.0058
                LDAA M.005C
                ADDA #$30
                STAA ,X
                PULA
                INX
                STX  M.0058
                LDX  M.005A
                INX
                INX
                CPX  #M.FB43
                BNE  Z.FAF1
                LDX  #M.0000
Z.FB1E          LDAA $01,X
                CMPA #$30
                BNE  Z.FB2E
                LDAA #$20
                STAA ,X
                INX
                CPX  #M.0004
                BNE  Z.FB1E
Z.FB2E          LDAA $01,X
                STAA ,X
                INX
                CPX  #M.0004
                BNE  Z.FB2E
                RTS
M.FB39          BEQ  Z.FB4B
                FCB  $03
                EORB ,X
                LSR  ,X
                CLV
                FCB  $00
                NOP
M.FB43          FCB  $FF
irq             LDAA P1A_CR
                ORAA #$3C
                STAA P1A_CR
                CLR  >M.0069
                CLR  >M.006A
                CLR  >M.0063
                LDAB P1A_DR
                LDAA P2A_DR
                COMA
                TST  >M.005D
                BNE  Z.FBD0
                COMB
                STAB M.0067
                STAA M.0068
                ANDA #$C0
                STAA M.005D
                CMPA #$C0
                BNE  Z.FBA6
                TSTB
                BPL  Z.FB9C
Z.FB6E          JSR  Z.FC46
Z.FB71          LDAA P2A_CR
                ANDA #$FE
                STAA P2A_CR
                LDAA P2B_CR
                ORAA #$02
                STAA P2B_CR
Z.FB81          LDAA P2B_DR
                LDAA P2A_DR
                TST  >M.0063
                BNE  Z.FB8D
                RTI
Z.FB8D          LDS  #RAMTOP
                CLI
                JMP  Z.FDE4
Z.FB94          BPL  Z.FBFB
                TSTA
                BPL  Z.FBDD
                JMP  Z.FB6E
Z.FB9C          BITB #$40
                BEQ  Z.FBFB
Z.FBA0          JSR  Z.FC46
                JMP  Z.FB71
Z.FBA6          CMPA #$80
                BEQ  Z.FBFF
                LDAA P2A_DR
                BPL  Z.FBBE
                BITA #$40
                BNE  Z.FBDD
                LDAA P2A_CR
                ORAA #$02
                STAA P2A_CR
                JMP  Z.FB81
Z.FBBE          LDAA P2A_DR
                COMA
                STAA M.0068
                ANDA #$C0
                STAA M.005D
                LDAB P1A_DR
                COMB
                STAB M.0067
                JMP  Z.FB94
Z.FBD0          ANDA #$C0
                BNE  Z.FC05
                LDAB M.005D
                CMPB #$40
                BNE  Z.FBDD
                JSR  Z.FC0C
Z.FBDD          CLR  >M.005D
                LDAA P2A_CR
                ANDA #$FD
                STAA P2A_CR
                LDAA P2B_CR
                ANDA #$FD
                STAA P2B_CR
                LDAA P2A_CR
                ORAA #$01
                STAA P2A_CR
                JMP  Z.FB81
Z.FBFB          BITB #$40
                BNE  Z.FBA0
Z.FBFF          JSR  Z.FC1B
                JMP  Z.FB71
Z.FC05          CMPA #$40
                BNE  Z.FBBE
                JMP  Z.FBDD
Z.FC0C          LDAB M.0068
                ANDB #$03
                STAB M.0052
                LDAA M.0067
                STAA M.0053
                LDAA #$FF
                STAA M.0063
                RTS
Z.FC1B          LDAB M.0067
                LDAA M.0068
                BITA #$40
                BNE  Z.FC2B
                ANDA #$03
                ASLB
                ROLA
                ASLB
                ROLA
                STAA M.0049
Z.FC2B          LDX  M.0048
                LDAA M.0067
                ANDA #$3F
                BITA #$20
                BNE  Z.FC37
                ORAA #$40
Z.FC37          CPX  #M.0040
                BEQ  Z.FC45
                CMPA #$1F
                BLS  Z.FC45
                STAA ,X
                INX
                STX  M.0048
Z.FC45          RTS
Z.FC46          TBA
                TSTB
                BMI  Z.FC4F
                ANDB #$3F
                STAB M.0049
                RTS
Z.FC4F          ANDB #$0F
                BNE  Z.FC57
                JSR  Z.FA6F
                RTS
Z.FC57          CMPB #$01
                BNE  Z.FC60
                LDAB #$FF
                STAB M.0069
                RTS
Z.FC60          CMPB #$02
                BNE  Z.FC6E
                LSRA
                LSRA
                LSRA
                LSRA
                ANDA #$07
                INCA
                STAA M.006A
                RTS
Z.FC6E          CMPB #$03
                BNE  Z.FC7B
                LSRA
                LSRA
                LSRA
                LSRA
                ANDA #$07
                STAA M.0064
                RTS
Z.FC7B          CMPB #$04
                BNE  Z.FC8B
                INS
                INS
                LDAA #$FF
                STAA M.005E
                JSR  Z.F9D2
                JMP  Z.FBDD
Z.FC8B          CMPB #$0F
                BNE  Z.FC96
                LDAA P1A_CR
                ANDA #$F7
                STAA P1A_CR
                RTS
Z.FC96          RTS
Z.FC97          LDX  #M.0000
                STX  M.0044
                LDX  M.0054
Z.FC9E          STX  M.004A
                LDX  #M.FDDB
                STX  M.0046
                LDX  M.004A
                CLR  >M.005E
                CLR  >M.005F
                CLR  >M.0061
                CLR  >M.0062
                STX  M.004A
                LDX  M.0046
                LDAA ,X
                INX
                STX  M.0046
                LDX  M.004A
Z.FCBE          STAA P2B_DR
                CPX  M.0042
                BEQ  Z.FCF6
                LDAB ,X
                CMPB #$04
                BEQ  Z.FCF6
                CMPB #$0D
                BEQ  Z.FCFF
                CMPB #$1F
                BHI  Z.FCD7
Z.FCD3          INX
                JMP  Z.FCBE
Z.FCD7          TSTB
                BPL  Z.FCE0
                PSHA
                LDAA #$FF
                STAA M.0061
                PULA
Z.FCE0          ANDB #$7F
                CMPB #$5F
                BEQ  Z.FD11
                CMPB #$7F
                BEQ  Z.FD11
                JMP  Z.FD25
Z.FCED          JMP  Z.FCD3
Z.FCF0          JMP  Z.FC97
Z.FCF3          JMP  Z.FC9E
Z.FCF6          LDAB M.005E
                ORAB #$80
                STAB M.005E
                JMP  Z.FD48
Z.FCFF          TST  >M.0062
                BEQ  Z.FD0A
                COM  >M.0062
                JMP  Z.FCD3
Z.FD0A          LDAB #$FF
                STAB M.005F
                JMP  Z.FD48
Z.FD11          STX  M.004A
                LDX  M.0054
                STX  M.0056
                LDX  M.0044
                CPX  #M.0040
                BEQ  Z.FD23
                LDAB ,X
                INX
                STX  M.0044
Z.FD23          LDX  M.004A
Z.FD25          CMPB #$61
                BCS  Z.FD2F
                CMPB #$7A
                BHI  Z.FD2F
                SUBB #$20
Z.FD2F          STAB P1B_DR
                JSR  Z.FA64
                BITA #$03
                BEQ  Z.FD56
                DECA
Z.FD39          TST  >M.005E
                BMI  Z.FD48
                TST  >M.0061
                BNE  Z.FD48
                TST  >M.005F
                BEQ  Z.FCED
Z.FD48          LDAB #$7F
                STAA P2B_DR
                JMP  Z.FD25
Z.FD50          JMP  Z.FCF0
Z.FD53          JMP  Z.FCF3
Z.FD56          STX  M.004A
                LDX  M.0046
                LDAA ,X
                INX
                STX  M.0046
                LDX  M.004A
                CMPA #$7B
                BNE  Z.FD7B
                TST  >P1B_DR
                BPL  Z.FD7F
                TST  >M.005F
                BNE  Z.FD75
                COM  >M.0062
                JMP  Z.FD39
Z.FD75          CLR  >M.005F
                JMP  Z.FD39
Z.FD7B          CMPA #$FF
                BNE  Z.FD39
Z.FD7F          TST  >M.005E
                BMI  Z.FDA9
                TST  >M.0061
                BNE  Z.FDA9
                TST  >M.005F
                BNE  Z.FD8F
                INX
Z.FD8F          LDAB ,X
                CMPB #$0D
                BEQ  Z.FD9F
                CMPB #$04
                BEQ  Z.FDA9
Z.FD99          JSR  Z.FE48
                JMP  Z.FD53
Z.FD9F          INX
                LDAB ,X
                CMPB #$04
                BEQ  Z.FDA9
                JMP  Z.FD99
Z.FDA9          JSR  Z.FE48
                LDAA M.0065
                ANDA #$08
                BNE  Z.FD50
                STX  M.004C
                PSHA
                LDAA M.004C
                CMPA M.0042
                BNE  Z.FDBF
                LDAA M.004D
                CMPA M.0043
Z.FDBF          PULA
                BCS  Z.FDD2
                TST  >M.0060
                BEQ  Z.FDD2
                CLR  >M.0060
                LDAA #$FF
                JSR  Z.FA54
                JMP  Z.FDE4
Z.FDD2          JSR  Z.FA6F
                LDX  M.0050
                INX
                JMP  Z.FE12
M.FDDB          ADDA M.B7AF
                STS  stack_unk
                ASR  M.6F5F
                STX  M.BDFA
                CLR  $7F,X
                FCB  $00
                NEG  $DE,X
                FCB  $52
                STX  M.004C
                BEQ  Z.FE14
                LDAA M.0065
                ANDA #$40
                BEQ  Z.FE14
                LDX  #M.0000
Z.FDF9          INX
                LDAA #$99
                TAB
                SUBA #$01
                SEC
                ADCA M.004D
                DAA
                STAA M.004D
                TBA
                ADCA M.004C
                DAA
                STAA M.004C
                BNE  Z.FDF9
                TST  >M.004D
                BNE  Z.FDF9
Z.FE12          STX  M.004C
Z.FE14          STX  M.0050
                LDX  M.0040
Z.FE18          LDAA ,X
                BMI  Z.FE2A
                CMPA #$04
                BEQ  Z.FE2A
                STX  M.004A
                LDX  M.004C
                BNE  Z.FE33
                LDX  M.004A
                BRA  Z.FE43
Z.FE2A          STX  M.004A
                LDX  M.004C
                BEQ  Z.FE3D
                DEX
                STX  M.004C
Z.FE33          LDX  M.004A
                INX
                CPX  M.0042
                BNE  Z.FE18
                COM  >M.0060
Z.FE3D          JSR  Z.FADC
                LDX  #M.F850
Z.FE43          STX  M.0054
                JMP  Z.FC97
Z.FE48          STX  M.004A
                PSHA
                LDAA M.004A
                CMPA #$F8
                BNE  Z.FE55
                LDAA M.004B
                CMPA #$50
Z.FE55          PULA
                BCS  Z.FE5E
                LDX  #const_006F
                JMP  Z.FE61
Z.FE5E          LDX  #M.05FF
Z.FE61          STX  M.004C
                LDAA M.0065
                TST  >M.0064
                BNE  Z.FE70
                COMA
                ANDA #$07
                JMP  Z.FE72
Z.FE70          LDAA M.0064
Z.FE72          PSHA
                TST  >M.0069
                BEQ  Z.FE8A
                LDAA #$FF
                JSR  Z.FA54
Z.FE7D          JSR  Z.FA81
                BPL  Z.FEC3
                TST  >M.0069
                BNE  Z.FE7D
                JMP  Z.FEED
Z.FE8A          JSR  Z.FA81
                BPL  Z.FEC3
                TST  >M.006A
                BNE  Z.FED1
                LDAA M.0065
                BITA #$10
                BNE  Z.FEF1
                LDAA P2A_DR
                BPL  Z.FEC3
                SEI
                LDAA P2A_DR
                LDAB P1A_DR
                COMA
                COMB
                ANDA #$03
                STAA M.0068
                STAB M.0067
                STX  M.0050
                LDX  M.0052
                JSR  Z.FC0C
                CPX  M.0052
                BEQ  Z.FEBE
                LDS  #RAMTOP
                JMP  Z.FDE4
Z.FEBE          LDX  M.0050
                JMP  Z.FEF1
Z.FEC3          LDS  #RAMTOP
                JMP  reset
Z.FEC9          DEX
                JMP  Z.FE72
Z.FECD          DECA
                JMP  Z.FE72
Z.FED1          LDAA M.006A
                CMPA #$08
                BNE  Z.FED9
                ADDA #$04
Z.FED9          LDX  #const_CFFF
Z.FEDC          DEX
                BNE  Z.FEDC
                DECA
                BNE  Z.FED9
                LDAA #$FF
                JSR  Z.FA54
                LDX  #M.8FFF
Z.FEEA          DEX
                BNE  Z.FEEA
Z.FEED          LDX  M.004A
                INS
                RTS
Z.FEF1          PULA
                CPX  #M.0000
                BNE  Z.FEC9
                LDX  M.004C
                TST  >M.0064
                BEQ  Z.FF07
                CMPA M.0064
                BLS  Z.FF10
                LDAA M.0064
                JMP  Z.FF10
Z.FF07          LDAB M.0065
                COMB
                ANDB #$07
                CBA
                BLS  Z.FF10
                TBA
Z.FF10          TSTA
                BNE  Z.FECD
                LDX  M.004A
                RTS
                FCB  ' ,' ,' ,' ,' ,' ,'K,'L,'A,'R,'T,'E,'X,'T,'A,'N,'Z
                FCB  'E,'I,'G,'E,' ,' ,' ,'A,'N,'1,'A,' ,' ,'1,'x,'1,'6
                FCB  ' ,'Z,'e,'i,'c,'h,'e,'n,' ,'/,' ,'A,'N,'1,'C,' ,' 
                FCB  '2,'x,'1,'6,' ,'Z,'e,'i,'c,'h,'e,'n,' ,' ,' ,' ,'V
                FCB  '3,'.,'0,' ,' ,' ,'0,'2,'/,'1,'9,'8,'7,' ,' ,' ,' 
                FCB  'C,'o,'p,'y,'r,'i,'g,'h,'t,' ,'(,'c,'),' ,'b,'y,' 
                FCB  'E,'B,'E,'L,'T,' ,'G,'m,'b,'H,',,' ,'D,'-,'7,'3,'0
                FCB  '2,' ,'O,'s,'t,'f,'i,'l,'d,'e,'r,'n,' ,'3,' ,' ,' 
                FCB  ' ,$ff,$ff,$ff,$ff,$ff,$ff,$ff,$ff,$ff,$ff,$ff,$ff
                FCB  $ff,$ff,$ff,$ff,$ff,$ff,$ff,$ff,$ff,$ff,$ff,$ff,$ff
                FCB  $ff,$ff,$ff,$ff,$ff,$ff,$ff,$ff,$ff,$ff,$ff,$ff,$ff
                FCB  $ff,$ff,$ff,$ff,$ff,$ff,$ff,$ff,$ff,$ff,$ff,$ff,$ff
                FCB  $ff,$ff,$ff,$ff,$ff,$ff,$ff,$ff,$ff,$ff,$ff,$ff,$ff
                FCB  $ff,$ff,$ff,$ff,$ff,$ff,$ff,$ff,$ff,$ff,$ff,$ff,$ff
                FCB  $ff,$ff,$ff,$ff,$ff,$ff,$ff,$ff,$ff,$ff,$ff,$ff

; ----------------------------------------------------------------------
; Interrupt vectors
; Only IRQ, SWI and RESET are used, as far as we can tell.

IRQvec          FDB  irq
SWIvec          FDB  unused
NMIvec          FDB  unused
RSETvec         FDB  reset

                END
